{"users": [
{
  "localId": "1tdEyIibNESWC6ZHHu5XF87h3Cp1",
  "email": "ratirot@theagent.co.th",
  "emailVerified": false,
  "passwordHash": "NtEV1aqdXV7lzBhq/vAGBu5eyM3TF4978fCEayCoMo5Oe7U2TvlU+38F0VhUCX5XAucDZHdPGvk2vc5DMt1bvg==",
  "salt": "iJeESjgmJEMZRA==",
  "displayName": "กวาง",
  "createdAt": "1538384002000",
  "providerUserInfo": []
},
{
  "localId": "1xRnF8uzNNWJ0LVSmpuciWWXFgr2",
  "email": "amonwan@theagent.co.th",
  "emailVerified": false,
  "passwordHash": "O0dZ/15D2rG6SyzTS37X/Tg6SW7skbtivi/7rYLX5tku8BHYSyGtx/zjoIqPk58KRteQGy/WKHypwa2jcpHhrg==",
  "salt": "evlIXU8+iUmtOw==",
  "displayName": "เมย์",
  "createdAt": "1538383409000",
  "providerUserInfo": []
},
{
  "localId": "2Xoi09IBUobPhPuriyivCWo6qcA2",
  "email": "manussapunt@theagent.co.th",
  "emailVerified": false,
  "passwordHash": "ipUoCsXax0M1FvlwipeL/NNp4GnxxBeycGKDuXe0blctGEeTF0qpWicdec40B4HHcEUvCmGPt8B4uxyJSh/xsw==",
  "salt": "azSf79/QrU3Shw==",
  "displayName": "มาย",
  "createdAt": "1538370178000",
  "providerUserInfo": []
},
{
  "localId": "3pZiISn7Hed6frh0QL6EId4hrzA3",
  "email": "natthanat@theagent.co.th",
  "emailVerified": false,
  "passwordHash": "0tuA9J8vgRZw5DVN8ypFc+y7cfKvnxrLjgzRECm3AJMLPJZv9l9MtwGk9eT3x6+tD+9gESa3XZKUTuX818jjxA==",
  "salt": "JjIZKvS1R+sE0w==",
  "displayName": "จอห์น",
  "createdAt": "1538381090000",
  "providerUserInfo": []
},
{
  "localId": "41hdISbN8Ia73lTGe3mNs4lbVNv2",
  "email": "tuanjai@theagent.co.th",
  "emailVerified": false,
  "passwordHash": "bCqjl4D1TQ8oaZ88Xxc1mWjE5SAA5q2240uhH13YNR8TElOBZ8co49S/8xLbDuyVaRyLVDksjlSQlZ4OvbDZjA==",
  "salt": "lQd5jfupcSYDrA==",
  "displayName": "ตุ๊ก",
  "createdAt": "1538382789000",
  "providerUserInfo": []
},
{
  "localId": "45adjEw1yjeZjqtXewQkdj2JFbt2",
  "email": "jiradej.ws@gmail.com",
  "emailVerified": true,
  "displayName": "Jiradej Wongvisitsak",
  "photoUrl": "https://lh6.googleusercontent.com/-pfiPiqEQ4bc/AAAAAAAAAAI/AAAAAAAAAAA/AB6qoq3TNSRoUdf7ljAbsibZ3d8HQ37vug/mo/photo.jpg",
  "lastSignedInAt": "1530590045000",
  "createdAt": "1530590045000",
  "providerUserInfo": [
    {
      "providerId": "google.com",
      "rawId": "110011936773375201039",
      "email": "jiradej.ws@gmail.com",
      "displayName": "Jiradej Wongvisitsak",
      "photoUrl": "https://lh6.googleusercontent.com/-pfiPiqEQ4bc/AAAAAAAAAAI/AAAAAAAAAAA/AB6qoq3TNSRoUdf7ljAbsibZ3d8HQ37vug/mo/photo.jpg"
    }
  ]
},
{
  "localId": "4F2ttwlzmqPNJCqxfFeKMXmbxgy1",
  "email": "artittaya@theagent.co.th",
  "emailVerified": false,
  "passwordHash": "YCnNfEQdFm/qXQdEuabul91Tux6xgTy6Rz7qbCQCL3ktp2kByejO+5jvoZ+pd4MQBxsZ4lmuJqjp8KfMLDMbdg==",
  "salt": "R8E47Xhd/wwDdA==",
  "displayName": "P\"Fah",
  "createdAt": "1527736976000",
  "providerUserInfo": []
},
{
  "localId": "6M2F8imo3EfOYxuMGzhWLDCZML82",
  "email": "lucksanamon@theagent.co.th",
  "emailVerified": false,
  "passwordHash": "yc2RKh5g9fr+Imq4i2ELiMJp+FV+oMuXPumIZplhrDhxJ80SziWSym3myT8csBq67ga1EzKQp4RtRFZ6ojil2g==",
  "salt": "FMey+fdvrE5xUQ==",
  "displayName": "",
  "createdAt": "1538369902000",
  "providerUserInfo": []
},
{
  "localId": "7gSIhnjLVNTTvdRbtAnObib80V42",
  "email": "worakon.oiu@gmail.com",
  "emailVerified": true,
  "passwordHash": "0QekhnoCQqHNLCL7JdCu0LFXbC+D/kXFma6bCA7Gq6QFk+0/c6JZYW5J0hpsz5x8id3IzMx85iuaN0Kp0c6rdw==",
  "salt": "pqUFsxdzLAFJtg==",
  "displayName": "Worakon Oiukhongkaeo",
  "photoUrl": "https://lh4.googleusercontent.com/-VJKYsZPVbco/AAAAAAAAAAI/AAAAAAAAABo/UblPWyUqBrM/photo.jpg",
  "lastSignedInAt": "1534220083000",
  "createdAt": "1527758278000",
  "providerUserInfo": [
    {
      "providerId": "google.com",
      "rawId": "100318876502458289123",
      "email": "worakon.oiu@gmail.com",
      "displayName": "Worakon Oiukhongkaeo",
      "photoUrl": "https://lh4.googleusercontent.com/-VJKYsZPVbco/AAAAAAAAAAI/AAAAAAAAABo/UblPWyUqBrM/photo.jpg"
    }
  ]
},
{
  "localId": "9RUrZOCsO9gjfHTAUiMS2AjDDl63",
  "email": "tipnaorn@theagent.co.th",
  "emailVerified": false,
  "passwordHash": "a23thj2JZWv+p3DZgBfQHUW3BjpDNf1m2JQD4SkNAERgHvnY3ckjN621ZFUB19BJkhHchZWXWL9o6be/1eG7pw==",
  "salt": "31a0L7DjG7Ne3Q==",
  "displayName": "น้อย",
  "createdAt": "1538383276000",
  "providerUserInfo": []
},
{
  "localId": "ACgA5asuVhZ8LuBc9nFZGxfc8d93",
  "email": "panida@theagent.co.th",
  "emailVerified": false,
  "passwordHash": "jrfwrN9TbcKfb7tM0OAN+n7xEBKEQ/GwQ03MSMqrOkzWUrwEtNhUjGkb1EWXwC6C6pKuse65vDMWE2LfkSD0yQ==",
  "salt": "UjQ18wm1VnQktg==",
  "displayName": "แองจี้",
  "createdAt": "1538382696000",
  "providerUserInfo": []
},
{
  "localId": "AFEZFWlaWydwtjVO6gatEX8Higp2",
  "email": "vatinee_c@theagent.co.th",
  "emailVerified": false,
  "passwordHash": "STz6Hq3yr4vjj6gLv3tSxXO5cBlsGmQ9SJS/YRrl7m4umpvZHCjKwcrssNG2xm594O7Kq6iw4UnImQHlIoTqGw==",
  "salt": "48CIc1MhOK7HSg==",
  "displayName": "น้ำ",
  "createdAt": "1538383846000",
  "providerUserInfo": []
},
{
  "localId": "Aqsw7Wl5iOfHo0STWCWGTPmn0nE3",
  "email": "prach@forviz.com",
  "emailVerified": false,
  "passwordHash": "1QsvGsZiApRBGpe2FgQSPpo2DlnQufYW/uS0zcHWctXC7JiyXqcbdv3AozmlBfkoxMjFQ9tAtuDdcMOI0hEbAQ==",
  "salt": "+sO/PbRLKRzHfg==",
  "lastSignedInAt": "1535953075000",
  "createdAt": "1535949834000",
  "providerUserInfo": []
},
{
  "localId": "AuSIJTlPyMOZfeXVSM0nk2Ygldd2",
  "email": "areeya@theagent.co.th",
  "emailVerified": false,
  "passwordHash": "YtZ9vkYowQMzOGT9YRD/J92m+NvYNBnlaOk6b6kxyoEFbl1M25toKTTZgI5U/W1EC9Nm4qZimH4nhzsL41hqrQ==",
  "salt": "MNuvBPnQu5AvUA==",
  "displayName": "ป๋อม",
  "createdAt": "1538379913000",
  "providerUserInfo": []
},
{
  "localId": "B5yzofrkmyREdnN6YvSQCPzaj3L2",
  "email": "vitivas@theagent.co.th",
  "emailVerified": false,
  "passwordHash": "djzB7oYmQ5OL4R0LTbH1vwRIuDJ0Y7Zy6OT54o89eFAsMF37JkPw3aW7oi+7qnYgY7NzQCH1UcQbiNMr5eNjPw==",
  "salt": "CdLBQCDqPTyPXw==",
  "displayName": "เซฟ",
  "createdAt": "1538380936000",
  "providerUserInfo": []
},
{
  "localId": "BFXfnVD0FdNZUILb9IlCUShtWGF3",
  "email": "tattana@theagent.co.th",
  "emailVerified": false,
  "passwordHash": "Ob89TfiwON/tFkcHdRHbIPCvuMX0JpxOu6vUTaA07/eLiLwJAHSpAc/guOD2MWG5hHMlVqwR69KMxNig304LAg==",
  "salt": "k565Bq6Mn2IDUA==",
  "displayName": "ทัช",
  "createdAt": "1538381765000",
  "providerUserInfo": []
},
{
  "localId": "BbbaCVSBFMZXH5nvP6ZArmLdLkq1",
  "email": "mirin@theagent.co.th",
  "emailVerified": false,
  "passwordHash": "MQUy/t1RImBlvtQrNa5Uuww94kUfN1ODUu59fqrcPlLDCOPRlkEjpwVCtpvh2kxZWytBtK0EBV1Gk0E8nExXuw==",
  "salt": "BOjAsBdKL9D8Dg==",
  "displayName": "ขิม",
  "createdAt": "1538382072000",
  "providerUserInfo": []
},
{
  "localId": "CR1uctLlygcsGYhKEMxlygv01eU2",
  "email": "suttini@theagent.co.th",
  "emailVerified": false,
  "passwordHash": "icNnZDCI3uGVjxMhtcXAsommI8KFGPOvx1WeBifmz4d/YxQfxLnRottN/LKGoqjaG7cMjBnyMGnQBm8+dYZGbw==",
  "salt": "+E6ZWZaO+FVpeA==",
  "displayName": "ทราย",
  "createdAt": "1538377948000",
  "providerUserInfo": []
},
{
  "localId": "CSq9iEa8Teh2rFVfKIawQS37eEK2",
  "email": "t.nutpakun@gmail.com",
  "emailVerified": true,
  "displayName": "Nutpakun Tanoobun",
  "photoUrl": "https://lh4.googleusercontent.com/-9-omYj6qmqs/AAAAAAAAAAI/AAAAAAAAAME/Wo3Ojruc1I4/photo.jpg",
  "lastSignedInAt": "1533285227000",
  "createdAt": "1533285227000",
  "providerUserInfo": [
    {
      "providerId": "google.com",
      "rawId": "110100804149582171275",
      "email": "t.nutpakun@gmail.com",
      "displayName": "Nutpakun Tanoobun",
      "photoUrl": "https://lh4.googleusercontent.com/-9-omYj6qmqs/AAAAAAAAAAI/AAAAAAAAAME/Wo3Ojruc1I4/photo.jpg"
    }
  ]
},
{
  "localId": "CWn94SzN8UX8tpNLlPz60oEtaNg2",
  "email": "test2@forviz.com",
  "emailVerified": false,
  "passwordHash": "wE7OOJRVv1k8kkb/OsXCSx6VaSrZ1yU6oKx0sFCRBPeA+t6j7lQpl9IGwSyEdTLfA+OaawgvhTWEko29Y8qUpg==",
  "salt": "S25SwCV7fkuldQ==",
  "displayName": "Test 2",
  "createdAt": "1537778987000",
  "providerUserInfo": []
},
{
  "localId": "DB9zjbEARYSPhRFg1tSn4xZapVs2",
  "email": "vatinee@theagent.co.th",
  "emailVerified": false,
  "passwordHash": "oGMAbC0C4X6cD7kZ54cv3SCZyrACj7vXx0yKvzF2J3JhuuhNAKsmXZV/8HawRcE4SrU+k4FLt0MKiBGjJTVkvA==",
  "salt": "TVGnBXFqgyfXWA==",
  "displayName": "P'Num",
  "lastSignedInAt": "1531822457000",
  "createdAt": "1527738575000",
  "providerUserInfo": []
},
{
  "localId": "DJy7tWBoPgN6OGY3z9QXaKPUktC2",
  "email": "kankit@theagent.co.th",
  "emailVerified": false,
  "passwordHash": "9m1Qs1zvMcvtbH/X1SerBGY4XCTYyfBUMLdxv5cgozsHyycUWRxBsVuzFg2+uLqsmTWOgO9jRkXKeQrMwfnqgQ==",
  "salt": "FnNNKiGYaxaUSw==",
  "displayName": "นิว",
  "createdAt": "1538382631000",
  "providerUserInfo": []
},
{
  "localId": "DfA3bu7FcnZTZpXpOvcbsPpdRtx2",
  "email": "tanayot@theagent.co.th",
  "emailVerified": false,
  "passwordHash": "oHw0xfbWpkkfvlQDwD3mNEocRuaVadFRGfDjUM3bZ9YzF40dL/UW8rJoEN55O3VbMJ8QDUmiG3YM2MGG/BsQjg==",
  "salt": "14EQIpdvspGE7g==",
  "displayName": "กันต์",
  "createdAt": "1538370129000",
  "providerUserInfo": []
},
{
  "localId": "DiWVLSW21gX0jECZv27EdwbGOfb2",
  "email": "godaremee@gmail.com",
  "emailVerified": false,
  "passwordHash": "nuycpioJXS9M/bThBnFTG3jaYIAYyAoJLMCR0wPTngOvuvDJgKUWYHSjqiCQFZRR5SS8/ZjzJ8d0CkCED1t1tw==",
  "salt": "b6XVE6ha88Hd/Q==",
  "displayName": "",
  "lastSignedInAt": "1534221538000",
  "createdAt": "1534219513000",
  "providerUserInfo": []
},
{
  "localId": "DtSL2KZVJ7X2C2sbCYE8yqDID1C2",
  "email": "phatcharanun@theagent.co.th",
  "emailVerified": false,
  "passwordHash": "xvQoTcXJgfC5TA2kk+26gtNH9gv6k7IyBMTw/2peJt/9bTSS2ohYLr6Q0HqjEKvAa/eiUUhdBeIrvUySkvMExg==",
  "salt": "eox/luAGoIEhLA==",
  "displayName": "เจี๊ยบ",
  "createdAt": "1538383324000",
  "providerUserInfo": []
},
{
  "localId": "E1jnFRd8sFekfu3R9YtcGG4Ljqs2",
  "email": "sasikarn@theagent.co.th",
  "emailVerified": false,
  "passwordHash": "kbjU2PRh+qVuJ1Bwd05+nD0SAMBE+HKOKQ8/FTG8Fl3QDn+UX01+/xhiW2G04AqMOPOULSGUujRJ8wvRb5hecA==",
  "salt": "qyJqSoz5PM0TRg==",
  "displayName": "Angie",
  "lastSignedInAt": "1537785725000",
  "createdAt": "1537513067000",
  "providerUserInfo": []
},
{
  "localId": "FFjIbGah49MQX2MSeEORO5BL5M63",
  "email": "pang.2329@gmail.com",
  "emailVerified": true,
  "passwordHash": "vGL/G52wN94Acy7mU251VJLmt4bD0mSPAZgogDyzbwUtVuP1eIUWdsLZggwU5kHkujsF6EWNuELChIruDsLNhQ==",
  "salt": "Rx1hZa8i+lB3vw==",
  "displayName": "PANG Thidarat",
  "photoUrl": "https://lh5.googleusercontent.com/-AVxb1Ihctvk/AAAAAAAAAAI/AAAAAAAAADg/IGBEVlW_U8Y/photo.jpg",
  "lastSignedInAt": "1537178290000",
  "createdAt": "1526461349000",
  "providerUserInfo": [
    {
      "providerId": "google.com",
      "rawId": "115273839941800527283",
      "email": "pang.2329@gmail.com",
      "displayName": "PANG Thidarat",
      "photoUrl": "https://lh5.googleusercontent.com/-AVxb1Ihctvk/AAAAAAAAAAI/AAAAAAAAADg/IGBEVlW_U8Y/photo.jpg"
    }
  ]
},
{
  "localId": "FmXd1mlnkwQHEKqYOYK9jr34ctA3",
  "email": "krirkwood@theagent.co.th",
  "emailVerified": false,
  "passwordHash": "dy5xtoB4z8cvunpJkOfYerMbebk7UefcVdOIwM3v2l9MPovogBZNwrOeD23L5J7sPkfJmTvbTLjaeSvFjBkXrQ==",
  "salt": "9NS6g/66m9Mu4w==",
  "displayName": "โค้ช",
  "createdAt": "1538381677000",
  "providerUserInfo": []
},
{
  "localId": "GCmzxr9QseV2oh9QktC6LbCVk8b2",
  "email": "siraphat@forviz.co.th",
  "emailVerified": true,
  "displayName": "Pocky Siraphat Jinwiset",
  "photoUrl": "https://lh3.googleusercontent.com/-T_3uyqhURrU/AAAAAAAAAAI/AAAAAAAAAEI/mJugc1akX6U/photo.jpg",
  "lastSignedInAt": "1532410990000",
  "createdAt": "1528776546000",
  "providerUserInfo": [
    {
      "providerId": "google.com",
      "rawId": "111458508202472130229",
      "email": "siraphat@forviz.co.th",
      "displayName": "Pocky Siraphat Jinwiset",
      "photoUrl": "https://lh3.googleusercontent.com/-T_3uyqhURrU/AAAAAAAAAAI/AAAAAAAAAEI/mJugc1akX6U/photo.jpg"
    }
  ]
},
{
  "localId": "H92nnLSDNyO5N0HmHzivCoMBPCF2",
  "email": "pornphawit@theagent.co.th",
  "emailVerified": false,
  "passwordHash": "pY6KWskXP3irqTrzJK8GUA2zCJCbLkLUafDT/ceTiYT1TMGo3CzzvGGkViGjKtdF/F+3hvPYTtHjAmFYzKpXqA==",
  "salt": "M3Z0Hz7tFvhVPA==",
  "displayName": "บรู๊ค",
  "createdAt": "1538380551000",
  "providerUserInfo": []
},
{
  "localId": "I3iArSi5F2MfsU4FKUFgP8tMFrI3",
  "email": "anupa@theagent.co.th",
  "emailVerified": false,
  "passwordHash": "bPndZnq9RxH5MVrYO+EdCXBypOslAkK0+X1rXem0P4id4gDw/HIsZNiRv4CXMdbd7Ki/1F1xB+1PCNHyYr8A5g==",
  "salt": "1OTXZ5Dxyct3HQ==",
  "displayName": "ไผ่",
  "createdAt": "1538383479000",
  "providerUserInfo": []
},
{
  "localId": "IEzT0vaufeOC5Lmi7K56PquhGGx2",
  "email": "wilaiporn@theagent.co.th",
  "emailVerified": false,
  "passwordHash": "PMJ6yPoxoUKbim+JAgBK5uPZ3+HVlmvJURMScx4zhpx4KftUYBa9NOV5DcNLABdFKrwirtEwMvnRNPYKJLDIlg==",
  "salt": "baXQB1uajgDwdw==",
  "displayName": "แม๊กกี้",
  "createdAt": "1538377885000",
  "providerUserInfo": []
},
{
  "localId": "J5uuCyb3LWgGoVLhlNAa05O61wC2",
  "email": "supasit@theagent.co.th",
  "emailVerified": false,
  "passwordHash": "cKiHAtWSs0NAoYZVUzlfuRTLJKTlaH+BXfn2h/67ny7hn4HdxglDC9k8rBbDEOp3jipKIxyBqWimQCn7VQUaFA==",
  "salt": "VIFKMVMCPeMwZQ==",
  "displayName": "บอล",
  "createdAt": "1538383221000",
  "providerUserInfo": []
},
{
  "localId": "JHdCbrNu71RwTxKV8Xnjorr4rTA3",
  "email": "siripa@theagent.co.th",
  "emailVerified": false,
  "passwordHash": "hMGeEseHkI+Kdpy3yXX7o8MxAb5tpAMFsHgzuncY1tdw9UIUJ9tcDL0HqGc/XpRdiJG+7tKv+tcZtQaaB/G8VA==",
  "salt": "8tllDmwdf5BC9g==",
  "displayName": "อู๋",
  "createdAt": "1538379339000",
  "providerUserInfo": []
},
{
  "localId": "K6XiQVbSUmgMbMdvtSGmBUQZZyk2",
  "email": "waliya@theagent.co.th",
  "emailVerified": false,
  "passwordHash": "kfe96xxhcGdQE6CGN4OKI7F/BilSTKQPc5t3HPcalIUskbGHzFhyxUyXg3OlTEWrrmnh30KF8d9q5L7V2ora4Q==",
  "salt": "0Sfg2jSGFy+/rA==",
  "displayName": "คุณเมย์",
  "createdAt": "1538380660000",
  "providerUserInfo": []
},
{
  "localId": "K8vYNLxEtKQ2vPN0jz1FAQWpxkw1",
  "email": "a6@gmail.com",
  "emailVerified": false,
  "passwordHash": "43We04/FUN/8GVjMMNvmZ/HqiAXM36jtDi9/4q/eOEiAlcd3+bD8K06aND5TfYBH8E3NzkqrZommVwsUKwJ3dg==",
  "salt": "81aSq4ekgdtGbA==",
  "displayName": "asdasdasdasd",
  "createdAt": "1528444198000",
  "providerUserInfo": []
},
{
  "localId": "LGj28n5thSOijcgYxqJAlTmijkF2",
  "email": "pitipat.dop@gmail.com",
  "emailVerified": true,
  "passwordHash": "J/pKfIaABIkGrqG5DWYb/VtYlJhih2WDaeWki/0Q3EONBamomGDWdJbpo1AEj8slxB36NXPvuihgVUhh5glrSg==",
  "salt": "",
  "displayName": "Pitipat Srichairat",
  "photoUrl": "https://lh6.googleusercontent.com/-aeMC7nccNc0/AAAAAAAAAAI/AAAAAAAAAGE/AWxReQ15mZo/photo.jpg",
  "lastSignedInAt": "1538387541000",
  "createdAt": "1524554742000",
  "providerUserInfo": [
    {
      "providerId": "google.com",
      "rawId": "114809302962591701971",
      "email": "pitipat.dop@gmail.com",
      "displayName": "Pitipat Srichairat",
      "photoUrl": "https://lh6.googleusercontent.com/-aeMC7nccNc0/AAAAAAAAAAI/AAAAAAAAAGE/AWxReQ15mZo/photo.jpg"
    }
  ]
},
{
  "localId": "LI4IaAD3eWZSuP3xpQ4VxBPsx762",
  "email": "subhapich@theagent.co.th",
  "emailVerified": false,
  "passwordHash": "MElMim9klneMSenyTyWVSSxsWVZYnN/N2tSiMaXcvljgd2UpIuqOBXB3Asj5BbqZxlCrHoz0zr9IQ8xzKzNlcw==",
  "salt": "X1n8qrMAOMk/jw==",
  "displayName": "ชาญ",
  "createdAt": "1538381730000",
  "providerUserInfo": []
},
{
  "localId": "M3vlBLzXxxWEx1S1h8s0JEIN63w1",
  "email": "areewan@theagent.co.th",
  "emailVerified": false,
  "passwordHash": "6eE5ZLXbI7Hf/+TAi3d5hUzAQNRCvACh7RoSNJsOgXwhfZmEChYvsefmqQo75a5/k9aZEfUMq2P8kc55K2deWQ==",
  "salt": "ain4u9wfKkox8A==",
  "displayName": "อุ้ม",
  "createdAt": "1538369191000",
  "providerUserInfo": []
},
{
  "localId": "MtzrSLdrK6XdvXTaWCfInRwu0uv2",
  "email": "niracha@theagent.co.th",
  "emailVerified": false,
  "passwordHash": "Vo0j/2eSc1oyQ6JDfW9i/p+WSTLiy2hccyeOxd26j+/MIIy6NSlnynWhyCFB5UaOurpE60cFQArPdFb9IhUfjw==",
  "salt": "hTvVpsK4MX552Q==",
  "displayName": "ขวัญ",
  "createdAt": "1538381951000",
  "providerUserInfo": []
},
{
  "localId": "NImDjTRh4lUSDlP4Kaqm9CsOyTB2",
  "email": "malinee@theagent.co.th",
  "emailVerified": false,
  "passwordHash": "UcrftZVrykGUZNzn7M8w0hOjjmnJPxOEs/EAr6qeAcnBmlzxnZ3kgZNisvKxTf04PWiUqWMw+jF1vg1K/+lF7Q==",
  "salt": "LOC9kwzdlmqaOw==",
  "displayName": "P'Nueng",
  "lastSignedInAt": "1531897258000",
  "createdAt": "1527738435000",
  "providerUserInfo": []
},
{
  "localId": "NLIUo0B1gAVWQpjtWf7wR4QuAx83",
  "email": "nantipak@theagent.co.th",
  "emailVerified": false,
  "passwordHash": "bq6fnhl/Rzpiv22xKXQ91nMRAG8tezJQ8jXT7A2oAewIATG5EdTXi0iBDeWs/wnqGZ6/YYSKKZu+0qJ4f1AEsQ==",
  "salt": "c4qG6flbSEpWmQ==",
  "displayName": "",
  "createdAt": "1538369416000",
  "providerUserInfo": []
},
{
  "localId": "NbGV42ryROVPCL5iUKw1BJXNY5T2",
  "email": "poompat@theagent.co.th",
  "emailVerified": false,
  "passwordHash": "LIwHxUDMcAC+YksOkn9cnV6NvvggMHJba8iQBvXgqV2zz3sfjaZ4hm5AdXzqY66AjlR/VWdcqqQyfQ1kJtMqnQ==",
  "salt": "Sb0Kky7+yTkOjw==",
  "displayName": "เล่อ",
  "createdAt": "1538379157000",
  "providerUserInfo": []
},
{
  "localId": "OrY9bxfITjW40a8feGEqN5n7Zjy1",
  "email": "panuwat_i@theagent.co.th",
  "emailVerified": false,
  "passwordHash": "z5DIUhWRsC7uAOGkGS/nUzzQW9oJQxP6Nc8NVz1gEfe25Buc/F2NqLNQI38lOdjD936/S6vZ+vB1CTyphLffoA==",
  "salt": "5SVocjoC9aTE8g==",
  "displayName": "ต่อ",
  "createdAt": "1538380484000",
  "providerUserInfo": []
},
{
  "localId": "Peo0RV19OddCrgRn1LH9DIsa1vk1",
  "email": "nutcha@theagent.co.th",
  "emailVerified": false,
  "passwordHash": "Xb8P/p3bh+sLSfxUZhgp4hc6Fbd0BZ6ufSnrJYd+xnFMbpm+A2supXOyhr3NlNzUr3mrjY19mdC+NfPa03641w==",
  "salt": "H5d3CyogesGMWQ==",
  "displayName": "เธิร์ด",
  "createdAt": "1538383429000",
  "providerUserInfo": []
},
{
  "localId": "Rkbyrj0KiqcvAFevAK4GgHzZ1zz2",
  "email": "malinee_c@theagent.co.th",
  "emailVerified": false,
  "passwordHash": "p696jitFgDHxhc4eoBBlemMiTK+TjwFBrMhmajXiY8jDRBdAgrfvudg6bLxXDXFc3BPD+ga3oGSMEd/LNNq47A==",
  "salt": "lC+2uUyMjLRAfg==",
  "displayName": "หนึ่ง",
  "createdAt": "1538383661000",
  "providerUserInfo": []
},
{
  "localId": "TJXnfLcf1NW3lgMYvXlEPN2qAFE2",
  "email": "benjamas@theagent.co.th",
  "emailVerified": false,
  "passwordHash": "bNgcoPV+aL7CHkQJtq0prSs8mHvZMDiuyrj8Lv8jtwvSj1yRu0n1tFyMAMokYLEfbRVnun4tNLBhk0JpM2dudg==",
  "salt": "2DFOJJi2GiZiHg==",
  "displayName": "เบญ",
  "createdAt": "1538370093000",
  "providerUserInfo": []
},
{
  "localId": "U9pGHuaAjPVIEXDjwxKNcHfacpC2",
  "email": "nitchapon@theagent.co.th",
  "emailVerified": false,
  "passwordHash": "qsvRXdPTYRznvAxN0in2YS0yvGhEcKD74UIKNle6zvTI9jwE0p3wOz+MTSMQCxLsMVQFWJquZOtIVCNturDMxA==",
  "salt": "K2hrl4/sCbhcnQ==",
  "displayName": "ไอ",
  "createdAt": "1538381310000",
  "providerUserInfo": []
},
{
  "localId": "Uk1EgV87nkTxfIonglJSM9X2SGB2",
  "email": "praewpailin@theagent.co.th",
  "emailVerified": false,
  "passwordHash": "wbKFv1Dyl0R2JwuE7IQ9eOUH9Drr77ZwEfYsn75izIcPjkBO3/0bGO8kTwlROMN1vli4G6ynMYiS85aNwo/wGQ==",
  "salt": "cKLYfFIiXE0m2A==",
  "displayName": "ยุ",
  "createdAt": "1538381986000",
  "providerUserInfo": []
},
{
  "localId": "Uv8Zg4Ck0hXfA4KOpwaXYkzJTYR2",
  "email": "terawat@theagent.co.th",
  "emailVerified": false,
  "passwordHash": "1rUjvTYDlAzmycctwUIPb7Hbp4G8QjO33w3+lTM6ouU9IiVNR6VrSEogMZcjjLq0waTQ/eod6L6KU+jN7wfnjQ==",
  "salt": "HJjBSrjM1PVb1g==",
  "displayName": "ตั้ม",
  "createdAt": "1538379807000",
  "providerUserInfo": []
},
{
  "localId": "VPZBmsf2pSb5HECEFbpcU39ztZe2",
  "email": "saranyal@theagent.co.th",
  "emailVerified": false,
  "passwordHash": "lDl0x+Rdr9FlSCWVcrQ2fU3E/h+2ke9HqS4FXxWtcKk8yDDI+90DD+Qhftybqp8HTiOaTpfEBJ6rEyRZlaZjdQ==",
  "salt": "RIIXWoZIjNr3Sw==",
  "displayName": "แอม",
  "createdAt": "1538383352000",
  "providerUserInfo": []
},
{
  "localId": "VlbdhrGZGYMo6aURKGCYOGMPCel2",
  "email": "somtawin@theagent.co.th",
  "emailVerified": false,
  "passwordHash": "hXDFJoS0YNmwkXcEW2Togjr5+/4I2NOG9rmUVpuhzgkPacdaYY7NAWN2feTOjV3tnyR21WepFMBKJn23qSLVgw==",
  "salt": "laj4wuOJaWsQNg==",
  "displayName": "Khun A (Som)",
  "createdAt": "1538381495000",
  "providerUserInfo": []
},
{
  "localId": "W1YuPHVOdDMP86OsE76AInm19eH2",
  "email": "tanyaporn@theagent.co.th",
  "emailVerified": false,
  "passwordHash": "hWJEUw3tltNcPxI0UJ3eUvQdU0I6P6oQBCtqRxXKXIYB1dZZ77FCW1lhBQdWjoh4Etr3M70kBLlWFPgKsLvyYA==",
  "salt": "oOnIQNrJrTaB4Q==",
  "displayName": "เก๋",
  "createdAt": "1538380523000",
  "providerUserInfo": []
},
{
  "localId": "W9S1WCUTvYVweWKbMfWosJLbaDQ2",
  "email": "pornpen_c@theagent.co.th",
  "emailVerified": false,
  "passwordHash": "p284AQptkuVC4HJ5Azq3oyp7+BsgKXCDH6GfKpWoSNtXEZtadHaRn5IYdVTBYGLVdsf0wl1uIeW/ZkDvst/ugA==",
  "salt": "94h0BWtDLjRDpg==",
  "displayName": "พิมพ์",
  "createdAt": "1538383453000",
  "providerUserInfo": []
},
{
  "localId": "WNmoZCJOHAg5eb8tsqM5h0L7kI22",
  "email": "test@forviz.com",
  "emailVerified": false,
  "passwordHash": "UhFzFijWuPdeFhNxGHOCMMEV34J3QFT+HrfSTbcYUY0zMIzur//qsc/SLmj5f/dm/w2ihbt79AUp3ZKXZvIwxQ==",
  "salt": "5foQVm4XYpUhOQ==",
  "displayName": "123456",
  "createdAt": "1537778749000",
  "providerUserInfo": []
},
{
  "localId": "WY3GCSWTMeQxQyGRhqXGBpRfJvz1",
  "email": "suppachok@theagent.co.th",
  "emailVerified": false,
  "passwordHash": "wkOgvatfed7C+FFUCqc2UAnOixfjUslFBpzIZzqE9ksZkunCj3fQ75nA+4mAKRT2ra6HO/mfZVee0s5ofLsLoQ==",
  "salt": "eXrmDRGyZzUTjA==",
  "displayName": "อาร์ต",
  "createdAt": "1538377913000",
  "providerUserInfo": []
},
{
  "localId": "Wq3vG36jfEPvH7bp4VuIhVoGf3B3",
  "email": "hatsathorn@theagent.co.th",
  "emailVerified": false,
  "passwordHash": "OkC/HnsGoU4gbCY7Vtmn2PRy55yUM3noTQLVNeuuYNTR0AA3joySbK96NQGXzSRsitucjeJX4m6IUdpNWTIJKA==",
  "salt": "rQkHeprRm52ZIw==",
  "displayName": "หยก",
  "createdAt": "1538382329000",
  "providerUserInfo": []
},
{
  "localId": "YX7iHsLM6KSMZ5dWkHrCftwbIE33",
  "email": "sarannapasorn@theagent.co.th",
  "emailVerified": false,
  "passwordHash": "v3AtFYIiz4S9wJfZb3vtKTacwp3VNc3c2DqnZPXu1K6/4aUdJPs0Thg+xHLSAyzPDE+AtutCGNCrZ7oBNVcjNg==",
  "salt": "Ekqech3dbeTY/A==",
  "displayName": "เทป",
  "createdAt": "1538383771000",
  "providerUserInfo": []
},
{
  "localId": "YlNiIcJMyxYj0mcISvLIhOafAei1",
  "email": "jittagorn@theagent.co.th",
  "emailVerified": false,
  "passwordHash": "g7GKvRLxP+iTC2DO7ZvsSZDnIzwzzdTVOn5YWYSK4u/5lR2mu+8STpcQwZ1rWllpEJPtKcOtq9hCS4lRbnINtg==",
  "salt": "d1AOffQsWmt6ew==",
  "displayName": "คุณโอ๊ต",
  "createdAt": "1538377795000",
  "providerUserInfo": []
},
{
  "localId": "ZV8numwktVNpywYIiTX6PCTpsSJ2",
  "email": "rattaya@theagent.co.th",
  "emailVerified": false,
  "passwordHash": "oiYZ0nnV0D0Zt3DxKkg3o8kAS0JYnLwtDFSeSq0DPL0EKPynHI66n9BypfaDHJYnMP8I0VpPWIjV2xPJ/zn9+Q==",
  "salt": "FIAu/O98kzyWMg==",
  "displayName": "น่าน",
  "createdAt": "1538382818000",
  "providerUserInfo": []
},
{
  "localId": "aSAKCCJQiZbUa6w1vp89p3zOlUW2",
  "email": "jittimap@theagent.co.th",
  "emailVerified": false,
  "passwordHash": "4Wwn0o4fJ1WlFCQWM4jhYpozoj6zQ1jhCJyBf3MEY1myZAIR2Y4shWWIrlTc/R4DwIwdoeIfbeAGkLJJ4tWlJg==",
  "salt": "EFDl8ZK/Pp74kA==",
  "displayName": "AMY",
  "createdAt": "1538369014000",
  "providerUserInfo": []
},
{
  "localId": "amvSNgXLHBhxhUH2Mt8sXYl4tfX2",
  "email": "nattapolp@theagent.co.th",
  "emailVerified": false,
  "passwordHash": "Jd7r+KmVAaFuP75GgJTPqFY4M+dC45iMxbGu9V5iRycTyX0YP/nthk2s/b/u5e6RhxTgIWx/0s1nlDhIAkMpLw==",
  "salt": "YRfpFSVQaS8ZOQ==",
  "displayName": "กริช",
  "createdAt": "1538381525000",
  "providerUserInfo": []
},
{
  "localId": "avkxENKdI5bEtlHGyv15vf8xdaw1",
  "email": "varinrashmi@theagent.co.th",
  "emailVerified": false,
  "passwordHash": "3RaZgb78Qylne89DPG3+YHNDbJdVBAnoF6JeGaefW8oHD7QtF24PAt8WANDjqpW1dP87pd1XN9idX6vI74GHdA==",
  "salt": "W02KakG13UnCUQ==",
  "displayName": "เน่",
  "createdAt": "1538381705000",
  "providerUserInfo": []
},
{
  "localId": "b1fBv7fbXbeaiYN1OMN8XHeZZho1",
  "email": "test_alliance1@theaagent.co.th",
  "emailVerified": false,
  "passwordHash": "yFv/1mBsYt053ztyG0HD9Zj98mYRtVCSsGYXhXTENZ9HUAeCk85ZY1POtFNAia78qR2lP9Q8J5JrfAMGaz5ltg==",
  "salt": "SgmtIwHQI9LF3w==",
  "displayName": "Test_Freelance",
  "createdAt": "1537779668000",
  "providerUserInfo": []
},
{
  "localId": "bAd81f28FbWEVCMZImMl7Ctasbr2",
  "email": "meesumlit.prach@gmail.com",
  "emailVerified": true,
  "displayName": "Prach Meesumlit",
  "photoUrl": "https://lh4.googleusercontent.com/-vAzny79_TzA/AAAAAAAAAAI/AAAAAAAAAAA/AB6qoq124gOCaU3dvzX1nOYG2J0xnf_Slg/mo/photo.jpg",
  "lastSignedInAt": "1528369958000",
  "createdAt": "1528369958000",
  "providerUserInfo": [
    {
      "providerId": "google.com",
      "rawId": "113659817936461952992",
      "email": "meesumlit.prach@gmail.com",
      "displayName": "Prach Meesumlit",
      "photoUrl": "https://lh4.googleusercontent.com/-vAzny79_TzA/AAAAAAAAAAI/AAAAAAAAAAA/AB6qoq124gOCaU3dvzX1nOYG2J0xnf_Slg/mo/photo.jpg"
    }
  ]
},
{
  "localId": "cgAbchKbRUdWyMZmJhxH1pZr7UC2",
  "email": "atmozpb@gmail.com",
  "emailVerified": true,
  "displayName": "Torpong Juntree",
  "photoUrl": "https://lh6.googleusercontent.com/-IP3VB9nSQ08/AAAAAAAAAAI/AAAAAAAAAAc/wn-H2RsAEx4/photo.jpg",
  "lastSignedInAt": "1531890221000",
  "createdAt": "1531890221000",
  "providerUserInfo": [
    {
      "providerId": "google.com",
      "rawId": "102887361441846657751",
      "email": "atmozpb@gmail.com",
      "displayName": "Torpong Juntree",
      "photoUrl": "https://lh6.googleusercontent.com/-IP3VB9nSQ08/AAAAAAAAAAI/AAAAAAAAAAc/wn-H2RsAEx4/photo.jpg"
    }
  ]
},
{
  "localId": "d4aaReosfaOuX5WYa2mHiJKkSAm1",
  "email": "ditthapol@theagent.co.th",
  "emailVerified": false,
  "passwordHash": "6cUU/cW2aHFnoOxxTyAPpfYvpB5Enpx2VeDw3VTpdkL7hniPRb165pJ8kJzbfGmXVoeak5tLZ17k0y9wRqmXdA==",
  "salt": "z0HJIdQWu3/7pw==",
  "displayName": "เฟิร์สท",
  "createdAt": "1538381116000",
  "providerUserInfo": []
},
{
  "localId": "dhYNvXttDhcIwibOnijpz6PMvUv1",
  "email": "veerapol@theagent.co.th",
  "emailVerified": false,
  "passwordHash": "d1Q0JlG8x4RRO75Z10BHaHi2pELa2n4Ew+yVearS7CO31w4wFC0Dy7qLiFo5xc08Zmyp/TsJ2AqDpsJ4ewyXXA==",
  "salt": "2ITyhUOUe/kbXw==",
  "displayName": "โจ้",
  "createdAt": "1538381340000",
  "providerUserInfo": []
},
{
  "localId": "eF0WmPC4tPYORtUEHJDeRCoc9IY2",
  "email": "a2@gmail.com",
  "emailVerified": false,
  "passwordHash": "iWPybMpKphPkDRGDsawPd2GjRY3gM5G4O+N9shZMqH6ewA9VWRE+3QoPex5PsVzDRWs2NxQOAe0f0F+P8UnOrQ==",
  "salt": "x81gFsICbsfDGw==",
  "displayName": "",
  "createdAt": "1528451339000",
  "providerUserInfo": []
},
{
  "localId": "f6isrNXVztZB2o6WteC2QTjrp2r2",
  "email": "dhanawat@theagent.co.th",
  "emailVerified": false,
  "passwordHash": "zxmcm9OzkUdW6AuOo/KBT2rLoJWiGu1PUqBhC0BtmHwimxAG1dP/kGb01fnZxd5inrrGp8lGJKXQYIWme+ae8Q==",
  "salt": "x6C/w/Crx14FPg==",
  "displayName": "โดโด้",
  "createdAt": "1538381155000",
  "providerUserInfo": []
},
{
  "localId": "gl5cs6PTu1e5Y8wmMzaWpU3cgmc2",
  "email": "pattama@theagent.co.th",
  "emailVerified": false,
  "passwordHash": "w5ZECWHXgeoRFbTpkA3tN+T90Q2FyvsGKujB9diMPK9M6+KJZuAzAtAlTW17Hc7Q/sjSWQr3lUbbF6TRsXDEUA==",
  "salt": "Ffq4eH/qPWD4Nw==",
  "displayName": "แก้ว",
  "createdAt": "1538383692000",
  "providerUserInfo": []
},
{
  "localId": "gpOm5i8sNYhorNL7QqX8fcMYWit1",
  "email": "sirikate@theagent.co.th",
  "emailVerified": false,
  "passwordHash": "WK3iZPMvC4+vxr3eIFf66ioj5GraIP5U96lEQqcfJlHXXrR+/BXWL902BlBZZHTbZdNmYyL1YrNhxSmdGjlJSQ==",
  "salt": "Ois/KvkuJdJRdA==",
  "displayName": "จิ๊บ",
  "createdAt": "1538382724000",
  "providerUserInfo": []
},
{
  "localId": "gw17Vt6JT0TKUKb0wlGeQvHbUug1",
  "email": "thaksaporn@theagent.co.th",
  "emailVerified": false,
  "passwordHash": "+rUv+FMW/1q2kY+kwHSyHMIKNWI6dr8aCvhBnsgoyCl71k9oX2sFUc3rn/QKRONtN1gNTS2r+7sebLd8uOhQsg==",
  "salt": "cuWv7i0JbHnifQ==",
  "displayName": "ฝ้าย",
  "createdAt": "1538369595000",
  "providerUserInfo": []
},
{
  "localId": "hCNzRPOk68dh5HtCv1E1rGPdihn1",
  "email": "panuwat@theagent.co.th",
  "emailVerified": false,
  "passwordHash": "y6fuGzAN+WkJFQjd/hbHoi7T1r7Tq3aDvBcEu1sJWUWAhL2IDhhJIZRhZo/z20xrfcGdNgwQ5gO3FTOAzNmbbg==",
  "salt": "fohJRNanx5E9sg==",
  "displayName": "Dew",
  "createdAt": "1538382141000",
  "providerUserInfo": []
},
{
  "localId": "hxveAi54laVHTNrsS2q0KRXjQQT2",
  "email": "achitpol@theagent.co.th",
  "emailVerified": false,
  "passwordHash": "QyhT16nR7/0NYFOKCUP1eYjmg6nvnBR/34DUkmuLPTyMXSf23u61+msqUIaEi614oM0pgRrdT2MKP2SadtJnwg==",
  "salt": "nUq7kSDLHgR4NQ==",
  "displayName": "จอน",
  "createdAt": "1538382304000",
  "providerUserInfo": []
},
{
  "localId": "iqbdxEuS47hRy6jCWbvudSgv3c83",
  "email": "tamonwan@theagent.co.th",
  "emailVerified": false,
  "passwordHash": "O7N5a6nCPoG0PMLKbfR6ZN4TV2RV5JWMF9SKix0mrmyJ4ZGPC/v6FU9SGQPKGjezA9r2/Zms23Obsfe5x7NGFg==",
  "salt": "9iWNvuX+WG2H3Q==",
  "displayName": "เฟิร์น",
  "createdAt": "1538380435000",
  "providerUserInfo": []
},
{
  "localId": "jLxYxKWG0HRoo8KiEeDZGLxgkIp1",
  "email": "n.noppon@theagent.co.th",
  "emailVerified": false,
  "passwordHash": "unEb/XIejyWKo4ssW9WKFERQrOyDR6FFDKRvVeoNL/Z2ylM/5429jTH4r9q7tdlbOnhKAIoW0T6pQOkKFyN/jg==",
  "salt": "rnhD4JUcZSu6Ag==",
  "displayName": "บีเอ็ม",
  "createdAt": "1538380689000",
  "providerUserInfo": []
},
{
  "localId": "jkoBAgfPP4RC6nfBq0vnpuWyTMX2",
  "email": "jiradej@theagent.co.th",
  "emailVerified": false,
  "passwordHash": "JcgbohNekt0/6QR6zgiBjOa/mEZ+15mrmszbJCS+ylc58mRkJAif0c2YiYoNd7GNcPTmltZAISbFnEkXw4FO1Q==",
  "salt": "02u8gtcnjnQJEg==",
  "displayName": "Fluke",
  "lastSignedInAt": "1538390831000",
  "createdAt": "1537785844000",
  "providerUserInfo": []
},
{
  "localId": "kLZT5zpzjJZa2vUPD4vETxdxTOn1",
  "email": "maythinee@theagent.co.th",
  "emailVerified": false,
  "passwordHash": "1UTjFijdPZ7mvl3HpQeCoh9YwPU+xN5iGUx9SXd/QTKlfQx/HnpBdia8jYYuVYuIhtvLVperH470LwmUtCWOuQ==",
  "salt": "dkpm9fZCs6kd+Q==",
  "displayName": "น้ำ",
  "createdAt": "1538383254000",
  "providerUserInfo": []
},
{
  "localId": "kRCSkOLcTtb3oevCZt7xjlCiivt1",
  "email": "prach@forviz.co.th",
  "emailVerified": false,
  "passwordHash": "GRWG0bvHISY+i/sDYKLK3LmZnTRyJtXywACr0ERVur4qJbk6+AgMSYKj4H/7W3UP4ql8mPets4b9pchuH2/AEQ==",
  "salt": "op5TjiH6pF95qg==",
  "displayName": "Bom",
  "createdAt": "1528186937000",
  "providerUserInfo": []
},
{
  "localId": "n9rYIVONgRSHhANqldSJBL2AYhu1",
  "email": "torpong.boss@gmail.com",
  "emailVerified": true,
  "displayName": "Torpong Juntree",
  "photoUrl": "https://lh6.googleusercontent.com/-ZkBcReye2ds/AAAAAAAAAAI/AAAAAAAAAI8/KXJZ5JZjkPM/photo.jpg",
  "lastSignedInAt": "1532280463000",
  "createdAt": "1532280463000",
  "providerUserInfo": [
    {
      "providerId": "google.com",
      "rawId": "101736988788974960254",
      "email": "torpong.boss@gmail.com",
      "displayName": "Torpong Juntree",
      "photoUrl": "https://lh6.googleusercontent.com/-ZkBcReye2ds/AAAAAAAAAAI/AAAAAAAAAI8/KXJZ5JZjkPM/photo.jpg"
    }
  ]
},
{
  "localId": "o7rVB4IPiDXLMcaRXhMGqSFiist1",
  "email": "ployfah@theagent.co.th",
  "emailVerified": false,
  "passwordHash": "T0+uP1Vc/B5zExo04zcFpn8hXmPDsZa20tyM1RwuLg4O+v6q3rlzxpsPqJKcsAfqroUM11+tJDMdaVE/TG2TyQ==",
  "salt": "3b7mCos0frPG2w==",
  "displayName": "ฟ้า",
  "createdAt": "1538369522000",
  "providerUserInfo": []
},
{
  "localId": "oCKupR4JYaaDiauzKx1qMy9a2zV2",
  "email": "wisithsak@theagent.co.th",
  "emailVerified": false,
  "passwordHash": "2sMI7WFdqoshfp8V/y0U4LzueWYQwP1CP+wxnBDFDTep9BV81SnGmnykSmFFHNct76HDOFWxy8qihBZmT4VZEg==",
  "salt": "50DWgLPqxytG7Q==",
  "displayName": "อั้ม",
  "createdAt": "1538383745000",
  "providerUserInfo": []
},
{
  "localId": "oYRpwAAp9PeARVbgFyaaKeGqtAp2",
  "email": "phudis@theagent.co.th",
  "emailVerified": false,
  "passwordHash": "wIaj75XNXIcufPeDUDhTT+kFoxNwT6f2J3UgZbjN+Y6xlyVwqYm7F84UJ0GBt1+/A12pCadqnNyYKSHStaHZPA==",
  "salt": "OmDcZEViC1dS7Q==",
  "displayName": "เก่ง",
  "createdAt": "1538369093000",
  "providerUserInfo": []
},
{
  "localId": "of8pEKbmcFUCCmn6wlKSinktYBB2",
  "email": "chartpong@theagent.co.th",
  "emailVerified": false,
  "passwordHash": "4nkQ7Rj0cf/gG7Kby9PNz9+dyNZwuhSY0U7q19ehxMOTMHTSxGBv4yr+w4O6Rn+/NKLpKb9fMvhRE/W/64Pe7A==",
  "salt": "j78DNlR8G0rong==",
  "displayName": "แพน",
  "createdAt": "1538377853000",
  "providerUserInfo": []
},
{
  "localId": "otj2jR4UkAQptqwzY7Z3bvmogev2",
  "email": "thadtharitt@theagent.co.th",
  "emailVerified": false,
  "passwordHash": "KRpqJ78iBrTVkYtcUMPal+IyzNw5gUmRJ4DjDexbUYqWb3iga+mga42YWvWa8hQ1pFJdpGWgmyeqAZHeJXT6uQ==",
  "salt": "dQVUTHBUg1YSUA==",
  "displayName": "ต้น",
  "createdAt": "1538383298000",
  "providerUserInfo": []
},
{
  "localId": "oycAaf5VZ7ZWkG2oSh6C77nzvBp1",
  "email": "natdanai@theagent.co.th",
  "emailVerified": false,
  "passwordHash": "N05ZtbwfHFrNX3cBnVvfGqh9CHdfkbEkxXHbfkpjuS4fiNi29pZoIFqaUH/HNAwx79CWqqTfk6dectAEfjBJUA==",
  "salt": "Kp318c4GYJ0EZQ==",
  "displayName": "เต้",
  "createdAt": "1538381191000",
  "providerUserInfo": []
},
{
  "localId": "pCMShizo8nQ4lStNyH0pYcBcNtS2",
  "email": "grit@theagent.co.th",
  "emailVerified": false,
  "passwordHash": "yj3uBZO959bQaaC/beGPGK2SrlMNvgjQV8dBCkTS9IVA09QeZXwNPnwIWtGpYzL3H+Yj96uWqVyh2DndGDEudQ==",
  "salt": "+vQZvvHtZygXfw==",
  "displayName": "กริช",
  "createdAt": "1538378896000",
  "providerUserInfo": []
},
{
  "localId": "pFd9A18R9kfF9J3W5kCWy2RKFE43",
  "email": "thataroth@theagent.co.th",
  "emailVerified": false,
  "passwordHash": "S35Q+kDtb7MAZ6ATWPdnIGaLgfuEiQXs5ufiAxtZd8vuR55lvx8QShjVfFQP6fnSKzdTB0UR9Nd6o6ingtRaMg==",
  "salt": "Chv87jNgzrqrQQ==",
  "displayName": "กรี",
  "createdAt": "1538380633000",
  "providerUserInfo": []
},
{
  "localId": "pP0L7xucbKgcnyhhq0M5zwCZOEy2",
  "email": "pitipat@forviz.co.th",
  "emailVerified": false,
  "passwordHash": "BN5XDpI3wQgEwKoppvzkNqvQVANLXiVfbnmTCc9337ZgoUph1WJt2FnmDk6WmFUyKA/dJ1EsQwwv+4FrC8p/gQ==",
  "salt": "N85zno0iH3Oczg==",
  "displayName": "Dop",
  "createdAt": "1538387576000",
  "providerUserInfo": []
},
{
  "localId": "peghzGukrLOeH6IyjGvfDorDUI92",
  "email": "chayanit.kmeuw@gmail.com",
  "emailVerified": true,
  "displayName": "chayanit meuw",
  "photoUrl": "https://lh3.googleusercontent.com/-XdUIqdMkCWA/AAAAAAAAAAI/AAAAAAAAAAA/4252rscbv5M/photo.jpg",
  "lastSignedInAt": "1529482115000",
  "createdAt": "1526985895000",
  "providerUserInfo": [
    {
      "providerId": "google.com",
      "rawId": "104756700669061767429",
      "email": "chayanit.kmeuw@gmail.com",
      "displayName": "chayanit meuw",
      "photoUrl": "https://lh3.googleusercontent.com/-IxGwC3R8aGU/AAAAAAAAAAI/AAAAAAAAAAA/AB6qoq316uISvOXAeQixrY25HRt7M4G4mg/mo/photo.jpg"
    }
  ]
},
{
  "localId": "pmPMogsc5GVk8qW1woKNrgBZfg02",
  "email": "adipong@theagent.co.th",
  "emailVerified": false,
  "passwordHash": "BnjrxlmnqOa34oNfbrg1HhcOlh2Ytn0KIPH2a7rubYdHuDf/aVmLm8U+t5YNfU2cLQVO3dkTPXq50ZKs0Dzv+w==",
  "salt": "aWIA52ML0MpuUA==",
  "displayName": "ปิงปอง",
  "createdAt": "1538381453000",
  "providerUserInfo": []
},
{
  "localId": "prg8b0jvW2YH3I1N8xKopvKvGGh2",
  "email": "aaa@gmail.com",
  "emailVerified": false,
  "passwordHash": "P9HRVzQhOj58hF01mtdtfva94QPe/kQVEhVoeJ5e1/5sq53ONstlg9KEj5ZUgcSvgrmTm7Txc/wVoAfjVmSFfQ==",
  "salt": "TCMutqxf3UDh4g==",
  "displayName": "",
  "createdAt": "1528440513000",
  "providerUserInfo": []
},
{
  "localId": "q1Dgn2eKwiQT87PdcU32BmmqrlL2",
  "email": "qq@hor.com",
  "emailVerified": false,
  "passwordHash": "v4KspVsxO9KhlZbgpXcPFsbsiuEqArIF3dIcb+ZqbsrqvHTWIDqN7u51O7Oy58UyvpeeifZZMe/rgiRCpee6vQ==",
  "salt": "07PcNNAUJ8l61g==",
  "displayName": "1",
  "createdAt": "1537178849000",
  "providerUserInfo": []
},
{
  "localId": "qIx0F5r1vmQ8Ai4Wc9yMqrUQcgz2",
  "email": "atittaya@theagent.co.th",
  "emailVerified": false,
  "passwordHash": "p3IodcshXhjxntgfgtLJAZWDZjkLcG8dBkyv/cr3DTb3obQ7hlOm0vaK6DcUhZqor/jcudDsC1gtTkYNmirQJQ==",
  "salt": "BmRA0s4lAi3sJA==",
  "displayName": "มุ่ย",
  "createdAt": "1538369471000",
  "providerUserInfo": []
},
{
  "localId": "s68BH6fjkxeITpN8EC8HxJpLy642",
  "email": "nutthayaporn.lew@gmail.com",
  "emailVerified": true,
  "passwordHash": "iF9K6Niz+QrjXxNY1n/e2ZsIFZWOctoiMqFUgrGuuLz6Pg7nl2+2tkmOvNl3cBTnSv94H6YHxsnjhbynurh1JA==",
  "salt": "JTGNE6JEk/uj7Q==",
  "displayName": "Wow",
  "lastSignedInAt": "1537773767000",
  "createdAt": "1537178412000",
  "providerUserInfo": []
},
{
  "localId": "sUpH9XAdDWaHg36mgxAgboYSkOl1",
  "email": "apiwat@theagent.co.th",
  "emailVerified": false,
  "passwordHash": "fdHV4OgQgBVuczKKBhHtRZ03F6hLVcOZhkYcKJbrQLOmacpSmMsZX17cegox0/2J0gUkIxmXzS5fJy+RFTR1RA==",
  "salt": "kxhBmSWRq4sUfQ==",
  "displayName": "โอ๊ก",
  "createdAt": "1538379739000",
  "providerUserInfo": []
},
{
  "localId": "slFujuUNw8ZplzShuj4M2RJObpD3",
  "email": "worakon@forviz.com",
  "emailVerified": false,
  "passwordHash": "DfjRyi7XwiWglXE+t15VOv+nL8wgoY/FsoyO+cq94ci9GylFRcsbhwSqOHqOjL83tAPUNeboOjyWw7HxeNsOSg==",
  "salt": "DbgkypgYAaEviw==",
  "displayName": "",
  "lastSignedInAt": "1528454210000",
  "createdAt": "1528452879000",
  "providerUserInfo": []
},
{
  "localId": "smSxH5vIheesxWT4ExoUlvum2mm2",
  "email": "prathan@theagent.co.th",
  "emailVerified": false,
  "passwordHash": "yuFtPCt56K2+m/HTUu3LJiKJDxLl734RLD4wnfvBGncT+n2it6pEPyIF6Pzf6R1EuYYUkDlhCfvDHM3sC7zoXw==",
  "salt": "CaF9nc5Rx5f6Sg==",
  "displayName": "ธาน",
  "createdAt": "1538377761000",
  "providerUserInfo": []
},
{
  "localId": "sucp4PGJSrbLKNf2SnpmGGWZci83",
  "email": "kaewkan@theagent.co.th",
  "emailVerified": false,
  "passwordHash": "7u64KC/6q/tHz83W6PiZGI0zC9KdlysImqYIh+LRXMA5tPxt0zB+S+T8nfggKgdy1BMoSZjxlijPsEIa96fkjA==",
  "salt": "H/fUeTXyqY4cyw==",
  "displayName": "แก้ม",
  "createdAt": "1538383189000",
  "providerUserInfo": []
},
{
  "localId": "tJmBHixPAGQ1SIBB4ytVvKSemb83",
  "email": "parichat@theagent.co.th",
  "emailVerified": false,
  "passwordHash": "okI/rXBVhKz4uEFcCJWLFOl6M74HZsSXUXtUaXOLba09kgLaE51yimneTlZttUuFdjfGUhz1b3V7AdFXv5aQWQ==",
  "salt": "ukc+AqlHyBEIJg==",
  "displayName": "น้อง",
  "createdAt": "1538383876000",
  "providerUserInfo": []
},
{
  "localId": "tMhlG86zh3T7BLgBujj2y6FnHOp2",
  "email": "meuwiiz.meuw@gmail.com",
  "emailVerified": false,
  "passwordHash": "DRX5yR+D6Drqv6vZv5NkiNAUaJyyfTvQh1vBLRobkhLSf5eZ5307NL3gd4tIViBuz7tf5wxVnRNMc64j+b2zgQ==",
  "salt": "6QUrUcVJtSAxVg==",
  "lastSignedInAt": "1526376414000",
  "createdAt": "1526366789000",
  "providerUserInfo": []
},
{
  "localId": "tYGT1iKVd9eYxAgjgObkPWg85I63",
  "email": "pachrita@theagent.co.th",
  "emailVerified": false,
  "passwordHash": "/vqGbcE4xXJH4kJyb3HNBCEyLBWjWB6OhMPSz2Pdo04hEAoaQ37W07fj3PSAR3Loz4UN3mcozcdg5B3mlPGx+g==",
  "salt": "KXhCeOYYxy8JQA==",
  "displayName": "กวาง",
  "createdAt": "1538378962000",
  "providerUserInfo": []
},
{
  "localId": "tun6rsvR8YTHTkXXI4XmmQwSvPv2",
  "email": "chitipat@theagent.co.th",
  "emailVerified": false,
  "passwordHash": "ZNSzhys7+CmJLnBnxGruxj8uH6p/CAiVwQ63ghZD+akiujobU1A7uPYr+131WlbCN3VoRmxlFV1EKtH76H2TVw==",
  "salt": "WAJkvcT8PFNaLg==",
  "displayName": "เต้",
  "createdAt": "1538381872000",
  "providerUserInfo": []
},
{
  "localId": "u8wN7XUTRqfqmJvSa372794T3hU2",
  "email": "monwarach@theagent.co.th",
  "emailVerified": false,
  "passwordHash": "lCv7sSjjPHJ/fIUquE/48SpoALYTcG+xj9x+L5QVgBD8WS5OyDLqpiq2OasE6K609DHYhmK2+08pMrAjGbBRKw==",
  "salt": "qrZ5smDKmZe7/Q==",
  "displayName": "อุ๊",
  "createdAt": "1538377823000",
  "providerUserInfo": []
},
{
  "localId": "v3fYQFVqRLhBxOwMyH3teV96XlK2",
  "email": "artittaya_p@theagent.co.th",
  "emailVerified": false,
  "passwordHash": "YsOtK/kLrUaYU5W2pLzZ37xzIJEFqbVfjmbQR6j0jn33xhOpitfy/vW/7NvEJuyWLcfBPq6zX1DgJ9hwf3ooXg==",
  "salt": "HZ4a4XaON3BlfA==",
  "displayName": "ฟ้า",
  "createdAt": "1538383617000",
  "providerUserInfo": []
},
{
  "localId": "vIhiqLRqLtO4mkMU1EaAdLxBChB2",
  "email": "natchanan@theagent.co.th",
  "emailVerified": false,
  "passwordHash": "DPL4gT1xP22UbiHtSo+KMk1D1wit1tdqFRM8h7q2Va/X4EuwpC6FgoluYV3IXC/RAYeYKjoD+DWP7Z2QobtV4w==",
  "salt": "4K2xT8krSDAqrA==",
  "displayName": "หนิง",
  "createdAt": "1538379771000",
  "providerUserInfo": []
},
{
  "localId": "vn3hGdlPfDgTKtpfobwv18U7Ppk1",
  "email": "kasidit@theagent.co.th",
  "emailVerified": false,
  "passwordHash": "oww7Wjly/+87OOyHLkWPoYY0tlrD7d11EC5ycaItodhKOViiODHu1LugRyIajvf+Caff46/kIQ4R0/jS+g+boA==",
  "salt": "NAZmE0m1oBXyUg==",
  "displayName": "ฟิล์ม",
  "createdAt": "1538381275000",
  "providerUserInfo": []
},
{
  "localId": "wPwOfISAzgPqRFKUpHphRfR7KFp2",
  "email": "piyaluk@theagent.co.th",
  "emailVerified": false,
  "passwordHash": "n8Oj2n+3uBiRFxIApEdNSgEoW1RN0bl4/tn4kxP0t43g2x+NcdtFOVbhNAznaguh8Cc2R0IswaCm775V3exZlg==",
  "salt": "wFVtMNehav/PZA==",
  "displayName": "หมี",
  "createdAt": "1538369993000",
  "providerUserInfo": []
},
{
  "localId": "wVjEeDW460Xgs6TWOmDKOB0n2V83",
  "email": "pitchaya@theagent.co.th",
  "emailVerified": false,
  "passwordHash": "tKuwqxeQNFsMOkRwCOT7erJ5yZaZjBxbQKrrF3nwfse3kJYMomJdo/mlQpkUmyDLJLyPcm56eeW8VySut+QRfg==",
  "salt": "Esjz8nXmUKwekQ==",
  "displayName": "โบนัส",
  "createdAt": "1538380220000",
  "providerUserInfo": []
},
{
  "localId": "wdmobi8pNNPqQbbRIUAQxanmpu12",
  "email": "areewong@theagent.co.th",
  "emailVerified": false,
  "passwordHash": "ycN5Nk/C6szu6nSUuT+4FkR1GfzU3gHyOrP+LYkmwAVa5JYEJhyO1s7eHsBT99oXyBu6WXv6uKMP5M+TfQ4gxw==",
  "salt": "/IfmAkOfd6fkJQ==",
  "displayName": "คุณปุ๋ย",
  "createdAt": "1538382849000",
  "providerUserInfo": []
},
{
  "localId": "wkjBZzUPO8gt9YzfH6ohwYiwz5u2",
  "email": "test@test.com",
  "emailVerified": false,
  "passwordHash": "WocVutvO2JY3ygd8u4JuJ1BvLwyk0izQgBP1HKpZEqiXtlBUJMf/6dRYoo8pVChMZFwwH//A6MUjJZv5lT/XFA==",
  "salt": "FcmQY5bFHQN5DQ==",
  "displayName": "Test",
  "createdAt": "1527247774000",
  "providerUserInfo": []
},
{
  "localId": "x5yg8rkclHf6xcmDZqrY1A2NEKz1",
  "email": "thanathpon.boon@gmail.com",
  "emailVerified": true,
  "displayName": "thanathpon wiratwisit",
  "photoUrl": "https://lh6.googleusercontent.com/-Xe1SFPAxirE/AAAAAAAAAAI/AAAAAAAAAAA/AAnnY7pTmEa14mBhynC1ZbNEMBCW-uqiMw/mo/photo.jpg",
  "lastSignedInAt": "1533286969000",
  "createdAt": "1533286969000",
  "providerUserInfo": [
    {
      "providerId": "google.com",
      "rawId": "113889728244399638585",
      "email": "thanathpon.boon@gmail.com",
      "displayName": "thanathpon wiratwisit",
      "photoUrl": "https://lh6.googleusercontent.com/-Xe1SFPAxirE/AAAAAAAAAAI/AAAAAAAAAAA/AAnnY7pTmEa14mBhynC1ZbNEMBCW-uqiMw/mo/photo.jpg"
    }
  ]
},
{
  "localId": "xC2UBUQVjVMRBw28HkfXLCTzq7W2",
  "email": "somrudee@theagent.co.th",
  "emailVerified": false,
  "passwordHash": "WN05c6alpP+VppgAdRv7KGephZgTvBTezrkKr+do5dBeq0AkZXNg94JwjjFW/Pd6WgMpZCbJT6vuas6Lfs3FqQ==",
  "salt": "gpOTBN26pv3V4w==",
  "displayName": "มุ้ย",
  "createdAt": "1538382100000",
  "providerUserInfo": []
},
{
  "localId": "xDqUpnFLIBOCNoYzCjxNR4AdpMu1",
  "email": "supawadeeb@theagent.co.th",
  "emailVerified": false,
  "passwordHash": "AdfH5vLGZ8Po6YohGWthXEJGgoY+iFT3r0eiCAAYogLMYfXG7OlDiDnpBgEsAteC5rkrZNxcLRkxocIe0pYwqg==",
  "salt": "Ei3EflWVTIDQ+A==",
  "displayName": "กิ๊ก",
  "createdAt": "1538383376000",
  "providerUserInfo": []
},
{
  "localId": "xG03iDckckWk4t97RraIIXl4Tqn1",
  "email": "malimalinee@gmail.com",
  "emailVerified": true,
  "displayName": "Malinee Ch",
  "photoUrl": "https://lh6.googleusercontent.com/-olmwa0j57Wo/AAAAAAAAAAI/AAAAAAAAAX8/uslSS5Go0dA/photo.jpg",
  "lastSignedInAt": "1527849757000",
  "createdAt": "1527849757000",
  "providerUserInfo": [
    {
      "providerId": "google.com",
      "rawId": "107388829870522005302",
      "email": "malimalinee@gmail.com",
      "displayName": "Malinee Ch",
      "photoUrl": "https://lh6.googleusercontent.com/-olmwa0j57Wo/AAAAAAAAAAI/AAAAAAAAAX8/uslSS5Go0dA/photo.jpg"
    }
  ]
},
{
  "localId": "xLPaYNEkLJhs7ny5WiMgtnBUxoY2",
  "email": "rewat@theagent.co.th",
  "emailVerified": false,
  "passwordHash": "JCRyLafZuaQrYRm1626KvRqY5gvDq3qwSjx6+uPwPOIS2aVtiBxhEOIVf+gflE7xv6MgI+Jle/HEKFEiz1t/sw==",
  "salt": "yUtcNwHePjl0JQ==",
  "displayName": "เรย์",
  "createdAt": "1538381240000",
  "providerUserInfo": []
},
{
  "localId": "xOQRjXFc3Hh3Dekm7YZ5aPfXVr83",
  "email": "charinees@theagent.co.th",
  "emailVerified": false,
  "passwordHash": "R5LZHOkMBC4Pz7OJ3yObbhCgwiyDBRiQ0H8IkRSIZvVq4Ku4aP5pSJdR/VsEnO61H6PVXLhEjV+zCOyZCl4Dlg==",
  "salt": "4FJAatgg27GApg==",
  "displayName": "ไอซ์",
  "createdAt": "1538380598000",
  "providerUserInfo": []
},
{
  "localId": "xWMTqjwUoqb6igWcaOdRsFxNXNm1",
  "email": "thanita_w@theagent.co.th",
  "emailVerified": false,
  "passwordHash": "BOHlyMmUCetXL+f/JnhqdZ5ut8FUG39EGinpsIBHhIyKiKeHuYvhuvbQ0HfR+3H6XxZ8F2cRiCQKSX3KumPSiQ==",
  "salt": "nFqWiCfc0LNxVw==",
  "displayName": "นิตา",
  "createdAt": "1538381914000",
  "providerUserInfo": []
},
{
  "localId": "yj2XPrceBPQGdVul390xvNAfrxt2",
  "email": "chatteeraphol@theagent.co.th",
  "emailVerified": false,
  "passwordHash": "fp7DXmj9CNXNtpLHIWM2pKF0f48YhC01nk9WU4UelNp1jiwbGfcU9K/jPPPVvO1o3d+1/wBjaS9dqCQTyPzwKA==",
  "salt": "B6PnDEndAqvOQA==",
  "displayName": "ป๊อป",
  "createdAt": "1538382662000",
  "providerUserInfo": []
},
{
  "localId": "z8ayJrBK1FMFQgeOaIdR89QkF833",
  "email": "chu.kassana@gmail.com",
  "emailVerified": false,
  "passwordHash": "DFU3gAz7Qn8Y/8stwn9E2YNySN7o+Cb4ZVVjDTQiAJVk7uusdnoA4uu3osz1sEt9L5GwY0dwC2wRBqN0rsfWlA==",
  "salt": "AlYyiSVpcTqUKg==",
  "lastSignedInAt": "1526463817000",
  "createdAt": "1526461288000",
  "providerUserInfo": []
},
{
  "localId": "zFxEWzMKD3Q9DOpDtn9AKkvlgWw1",
  "email": "pravit@theagent.co.th",
  "emailVerified": false,
  "passwordHash": "U4PFJMmyidtJsDhyvtXvpN7Wjp2B3tbBivrQ7nL6Xj9+ZFwzKZqxzG2LW61er6l5w9HHAlVUMj4nuNyJAB3TFw==",
  "salt": "3MooPUUJx1ySGA==",
  "displayName": "บอย",
  "createdAt": "1538380191000",
  "providerUserInfo": []
},
{
  "localId": "zronvWWN0vgZbXM4i0dKHyEgmmA3",
  "email": "testt@hotmail.com",
  "emailVerified": false,
  "passwordHash": "DD5OQUDp3cNmQiM6lmcXSpStsCCgzyU4FC90N4osMuDGVeJjjWVzIwiI6/gtafO2UzRYTnJ9jYSIU/3yDOCERw==",
  "salt": "9iYQg+buRf9Hsg==",
  "displayName": "test",
  "createdAt": "1533289104000",
  "providerUserInfo": []
}]}