<?xml version="1.0" standalone="no"?>
<!DOCTYPE svg PUBLIC "-//W3C//DTD SVG 1.1//EN" "http://www.w3.org/Graphics/SVG/1.1/DTD/svg11.dtd" >
<svg xmlns="http://www.w3.org/2000/svg">
<metadata>Generated by IcoMoon</metadata>
<defs>
<font id="icomoon" horiz-adv-x="1024">
<font-face units-per-em="1024" ascent="960" descent="-64" />
<missing-glyph horiz-adv-x="1024" />
<glyph unicode="&#x20;" horiz-adv-x="512" d="" />
<glyph unicode="&#xe900;" glyph-name="facility-etc" d="M512 960c-282.77 0-512-229.23-512-512s229.23-512 512-512c282.77 0 512 229.23 512 512v0c0 282.77-229.23 512-512 512v0zM332.8 409.6c-0.381-0.010-0.83-0.016-1.28-0.016-28.984 0-52.48 23.496-52.48 52.48s23.496 52.48 52.48 52.48c28.978 0 52.471-23.487 52.48-52.463v-0.001c0-0.005 0-0.010 0-0.016 0-28.534-22.772-51.749-51.134-52.463l-0.066-0.001zM512 409.6c-0.127-0.001-0.277-0.002-0.427-0.002-28.984 0-52.48 23.496-52.48 52.48s23.496 52.48 52.48 52.48c28.983 0 52.479-23.495 52.48-52.478v0c0-0.001 0-0.001 0-0.002 0-28.834-23.254-52.237-52.030-52.478h-0.023zM691.2 409.6c-0.127-0.001-0.277-0.002-0.427-0.002-28.984 0-52.48 23.496-52.48 52.48s23.496 52.48 52.48 52.48c28.983 0 52.479-23.495 52.48-52.478v0c0-0.001 0-0.001 0-0.002 0-28.834-23.254-52.237-52.030-52.478h-0.023z" />
<glyph unicode="&#xe901;" glyph-name="facility-hospital" d="M512 960c-282.77 0-512-229.23-512-512s229.23-512 512-512c282.77 0 512 229.23 512 512v0c0 282.77-229.23 512-512 512v0zM743.253 274.773c-0.947-32.25-27.317-58.033-59.709-58.033-0.309 0-0.617 0.002-0.924 0.007l0.047-0.001h-341.333c-0.388-0.009-0.845-0.014-1.304-0.014-32.395 0-58.766 25.787-59.707 57.954l-0.002 0.087v248.747c0.947 32.486 27.508 58.46 60.136 58.46 0.308 0 0.616-0.002 0.924-0.007l-0.046 0.001h65.28v39.253c0.909 32.281 27.295 58.102 59.711 58.102 1.058 0 2.11-0.028 3.155-0.082l-0.146 0.006h89.173c0.385 0.009 0.839 0.014 1.294 0.014 32.309 0 58.584-25.836 59.292-57.975l0.001-0.066v-39.253h63.573c0.261 0.004 0.569 0.006 0.877 0.006 32.628 0 59.189-25.974 60.134-58.373l0.002-0.087zM593.067 621.227c-0.707 19.237-16.472 34.563-35.817 34.563-0.158 0-0.316-0.001-0.473-0.003h-87.443c-0.261 0.007-0.568 0.011-0.876 0.011-19.348 0-35.114-15.331-35.816-34.507l-0.002-0.064v-39.253h162.133zM538.88 490.667h-53.76v-69.12h-71.68v-51.2h71.68v-69.12h53.76v69.12h71.68v51.2h-71.68v69.12z" />
<glyph unicode="&#xe902;" glyph-name="facility-office" d="M512 960c-282.77 0-512-229.23-512-512s229.23-512 512-512c282.77 0 512 229.23 512 512v0c0 282.77-229.23 512-512 512v0zM384 275.2v-46.933c-1.116-5.78-6.135-10.086-12.16-10.086s-11.044 4.306-12.147 10.008l-0.013 0.078v46.933c-44.196 4.369-78.649 40.593-80.209 85.181l-0.004 0.152c0 48.64 42.667 194.56 92.587 194.56s92.587-145.92 92.587-194.56c-1.59-44.873-36.262-81.169-80.286-85.306l-0.354-0.027zM741.973 229.12c0.006-0.136 0.009-0.296 0.009-0.457 0-6.301-4.878-11.462-11.063-11.914l-0.039-0.002h-223.147c-6.19 0.219-11.125 5.29-11.125 11.513 0 0.303 0.012 0.603 0.035 0.899l-0.002-0.039v437.76c-0.020 0.257-0.032 0.557-0.032 0.86 0 6.224 4.935 11.294 11.106 11.513l0.020 0.001h224.427c6.19-0.219 11.125-5.29 11.125-11.513 0-0.303-0.012-0.603-0.035-0.899l0.002 0.039zM586.24 362.667h66.987v-121.6h-66.987v121.6zM640.427 498.347h46.507v-72.96h-46.507v72.96zM552.107 498.347h46.507v-72.96h-46.507v72.96zM640.427 622.507h46.507v-72.96h-46.507v72.96zM552.107 622.507h46.507v-72.96h-46.507v72.96z" />
<glyph unicode="&#xe903;" glyph-name="facility-park" d="M512 960c-282.77 0-512-229.23-512-512s229.23-512 512-512c282.77 0 512 229.23 512 512v0c0 282.77-229.23 512-512 512v0zM398.933 301.653v-58.027c0-6.362-5.158-11.52-11.52-11.52s-11.52 5.158-11.52 11.52v0 58.027c-54.185 8.364-95.185 54.668-95.185 110.547 0 1.036 0.014 2.069 0.042 3.098l-0.003-0.152c0 49.92 40.107 241.067 106.667 241.067s106.667-191.147 106.667-241.067c0.025-0.877 0.039-1.91 0.039-2.946 0-55.879-41.001-102.183-94.559-110.467l-0.626-0.080zM725.333 247.040c0-6.362-5.158-11.52-11.52-11.52s-11.52 5.158-11.52 11.52v42.667h-144.213v-42.667c0.005-0.127 0.008-0.277 0.008-0.427 0-6.362-5.158-11.52-11.52-11.52-0.003 0-0.006 0-0.008 0v0c-6.412 0.236-11.52 5.491-11.52 11.939 0 0.003 0 0.005 0 0.008v0 106.667c0.227 6.269 5.251 11.293 11.499 11.519l0.021 0.001h128v94.293c0.227 6.269 5.251 11.293 11.499 11.519l0.021 0.001h26.027c6.362 0 11.52-5.158 11.52-11.52v0z" />
<glyph unicode="&#xe904;" glyph-name="facility-school" d="M512 960c-282.77 0-512-229.23-512-512s229.23-512 512-512c282.77 0 512 229.23 512 512v0c0 282.77-229.23 512-512 512v0zM310.187 220.587c-2.187-3.112-5.761-5.12-9.804-5.12-0.003 0-0.007 0-0.010 0h-40.106c-6.852 0.275-12.302 5.896-12.302 12.79 0 1.063 0.13 2.096 0.374 3.084l-0.018-0.088 10.667 40.533c1.192 4.283 4.6 7.55 8.88 8.518l0.080 0.015v263.253l24.747-12.373v-250.88c4.36-0.984 7.768-4.25 8.94-8.449l0.020-0.084 10.667-40.533c0.214-0.892 0.337-1.916 0.337-2.969 0-2.889-0.926-5.561-2.498-7.737l0.027 0.039zM694.187 351.573c0-37.12-73.387-78.507-170.667-78.507s-170.667 42.667-170.667 78.507v152.747l12.373-5.973 12.373-6.4 140.8-69.547c0.833-0.207 1.789-0.326 2.773-0.326s1.94 0.119 2.855 0.343l-0.082-0.017h5.547l137.813 68.267 12.373 6.4 12.373 5.973c0.095-0.384 0.15-0.826 0.15-1.28s-0.055-0.896-0.158-1.318l0.008 0.038zM750.080 559.787l-14.080-7.253-103.253-50.773-111.36-53.76-110.933 54.187-131.84 63.573 237.227 117.333c1.622 0.798 3.53 1.264 5.547 1.264s3.925-0.467 5.622-1.298l-0.076 0.033 235.52-116.053z" />
<glyph unicode="&#xe905;" glyph-name="facility-shopping" d="M512 960c-282.77 0-512-229.23-512-512s229.23-512 512-512c282.77 0 512 229.23 512 512v0c0 282.77-229.23 512-512 512v0zM693.76 217.173h-330.667c-0.141-0.001-0.307-0.002-0.473-0.002-27.099 0-49.067 21.968-49.067 49.067 0 0.751 0.017 1.498 0.050 2.241l-0.004-0.106 23.467 279.893c1.135 12.954 11.931 23.040 25.083 23.040 0.032 0 0.064 0 0.095 0h64.422v47.36c1.169 32.777 28.022 58.905 60.977 58.905 0.613 0 1.224-0.009 1.832-0.027l-0.089 0.002h76.373c0.774 0.035 1.683 0.055 2.595 0.055 32.966 0 59.825-26.145 60.975-58.83l0.003-0.105v-47.36h65.28c0.144 0.003 0.315 0.005 0.485 0.005 13.068 0 23.771-10.13 24.684-22.966l0.005-0.079 23.467-279.893c0.030-0.637 0.046-1.384 0.046-2.136 0-27.099-21.968-49.067-49.067-49.067-0.166 0-0.333 0.001-0.498 0.002h0.025zM566.613 654.507h-76.373c-0.528 0.028-1.146 0.044-1.768 0.044-19.059 0-34.643-14.876-35.774-33.651l-0.005-0.1v-49.493h151.467v47.36c0 0.012 0 0.026 0 0.041 0 19.794-16.046 35.84-35.84 35.84-0.6 0-1.197-0.015-1.79-0.044l0.083 0.003z" />
<glyph unicode="&#xe906;" glyph-name="menu-article" d="M768 824.32h-512c-10.84 0-19.627-8.787-19.627-19.627v0-713.387c-0.003-0.128-0.005-0.28-0.005-0.432 0-10.604 8.596-19.2 19.2-19.2 0.152 0 0.303 0.002 0.454 0.005h511.978c10.84 0 19.627 8.787 19.627 19.627v0 713.387c-0.233 10.744-8.882 19.393-19.605 19.626h-0.022zM524.373 258.56h-151.040c-10.461 0.208-18.945 8.395-19.624 18.713l-0.003 0.060c-0.003 0.128-0.005 0.28-0.005 0.432 0 10.604 8.596 19.2 19.2 19.2 0.152 0 0.303-0.002 0.454-0.005h151.018c0.128 0.003 0.28 0.005 0.432 0.005 10.604 0 19.2-8.596 19.2-19.2 0-0.152-0.002-0.303-0.005-0.454v0.022c-0.682-10.379-9.166-18.566-19.606-18.773h-0.020zM652.373 429.227h-279.040c-0.128-0.003-0.28-0.005-0.431-0.005-10.456 0-18.959 8.357-19.195 18.756v0.022c0 10.84 8.787 19.627 19.627 19.627v0h277.333c10.744-0.233 19.393-8.882 19.626-19.605v-0.022c0-10.84-8.787-19.627-19.627-19.627v0zM652.373 599.893h-279.040c-0.128-0.003-0.28-0.005-0.431-0.005-10.456 0-18.959 8.357-19.195 18.756v0.022c0 0.001 0 0.003 0 0.005 0 10.925 8.737 19.81 19.604 20.048h277.355c10.89-0.239 19.627-9.124 19.627-20.049 0-0.002 0-0.003 0-0.005v0c0.012-0.255 0.019-0.553 0.019-0.853 0-10.84-8.787-19.627-19.627-19.627-0.007 0-0.013 0-0.020 0h0.001z" />
<glyph unicode="&#xe907;" glyph-name="menu-home" d="M907.52 504.32l-384 301.227c-3.543 3.012-8.171 4.844-13.227 4.844s-9.684-1.832-13.256-4.868l0.029 0.024-384-301.227c-4.885-3.942-7.984-9.93-7.984-16.64 0-11.739 9.481-21.263 21.204-21.333h87.047v-359.68c0-11.782 9.551-21.333 21.333-21.333v0h554.667c11.782 0 21.333 9.551 21.333 21.333v0 359.68h85.333c0.359-0.022 0.778-0.034 1.2-0.034 11.546 0 20.907 9.36 20.907 20.907 0 7.041-3.481 13.269-8.815 17.058l-0.065 0.044zM608.853 128h-194.56v289.707h195.413z" />
<glyph unicode="&#xe908;" glyph-name="menu-review" d="M886.613 515.84l-173.227-170.667 42.667-238.507c0.093-0.74 0.146-1.596 0.146-2.464 0-6.577-3.037-12.445-7.786-16.278l-0.040-0.031c-2.915-1.81-6.452-2.883-10.24-2.883s-7.325 1.073-10.324 2.931l0.084-0.048-215.893 112.64-213.333-113.067c-2.903-1.576-6.357-2.503-10.027-2.503s-7.124 0.927-10.139 2.559l0.113-0.056c-5.525 3.535-9.135 9.639-9.135 16.587 0 0.921 0.064 1.828 0.186 2.716l-0.012-0.103 42.667 238.507-173.227 170.667c-4.309 3.469-7.042 8.744-7.042 14.657 0 1.001 0.078 1.984 0.229 2.943l-0.014-0.106c2.383 6.813 8.152 11.873 15.235 13.207l0.125 0.020 239.787 34.56 107.52 217.6c3.592 5.753 9.889 9.524 17.067 9.524s13.474-3.771 17.018-9.44l0.049-0.084 107.093-217.6 239.787-34.56c7.383-1.209 13.334-6.308 15.743-13.086l0.043-0.14c0.293-1.243 0.461-2.67 0.461-4.136 0-5.225-2.135-9.952-5.579-13.355l-0.002-0.002z" />
<glyph unicode="&#xe909;" glyph-name="menu-smartmap" d="M519.68 799.147v0 0c-1.849 0.607-3.977 0.957-6.187 0.957s-4.338-0.35-6.332-0.997l0.145 0.041-165.973-63.573v-640l170.667 66.987 168.533-66.133v640zM139.52 800c-1.853 0.639-3.988 1.008-6.209 1.008-4.227 0-8.142-1.336-11.345-3.609l0.061 0.041c-4.849-3.462-8-9.032-8.106-15.343v-597.35c-0.002-0.089-0.002-0.193-0.002-0.298 0-7.835 4.911-14.523 11.823-17.153l0.126-0.042 177.92-69.973v640zM901.12 797.44c-3.142 2.232-7.057 3.568-11.284 3.568-2.221 0-4.356-0.369-6.347-1.049l0.138 0.041-165.973-65.28v-640l178.347 70.827c7.038 2.672 11.949 9.36 11.949 17.195 0 0.105-0.001 0.21-0.003 0.314v-0.016 597.333c0.142 0.848 0.223 1.824 0.223 2.82 0 5.79-2.746 10.939-7.008 14.215l-0.042 0.031z" />
<glyph unicode="&#xe90a;" glyph-name="profile" d="M512 810.667c-199.876-0.243-361.813-162.33-361.813-362.24 0-200.060 162.18-362.24 362.24-362.24 199.909 0 361.996 161.937 362.24 361.789v0.024c-0.243 200.198-162.469 362.424-362.643 362.667h-0.023zM512 591.787c0.762 0.019 1.66 0.029 2.56 0.029 62.225 0 112.669-50.444 112.669-112.669 0-61.325-48.995-111.207-109.976-112.638l-0.133-0.002h-11.093c-60.933 1.667-109.693 51.459-109.693 112.64 0 62.231 50.448 112.68 112.68 112.68 1.050 0 2.097-0.014 3.141-0.043l-0.154 0.003zM512 122.453c-0.216-0.001-0.473-0.001-0.729-0.001-88.019 0-167.782 35.348-225.868 92.624l0.037-0.036c7.654 10.056 15.34 18.96 23.529 27.371l-0.063-0.065 12.373 11.947c8.494 7.759 17.67 15.311 27.226 22.38l0.934 0.66 12.373 7.68 13.227 8.107 24.32 11.947 12.8 5.12 14.507 5.547c8.364 2.896 18.819 5.699 29.514 7.835l1.633 0.272 15.787 2.56 44.8 2.56c10.667 0 20.907 0 31.147-2.56l15.787-2.56 16.213-3.413 14.933-4.693c6.154-1.762 11.116-3.506 15.954-5.491l-1.021 0.371c5.885-2.045 10.816-4.206 15.548-6.694l-0.614 0.294c16.513-7.663 30.504-15.629 43.765-24.593l-1.098 0.7 11.093-8.107c7.777-5.521 14.597-11.122 21.004-17.157l-0.097 0.091 12.373-11.947c8.127-8.347 15.813-17.251 22.948-26.598l0.519-0.709c-57.821-57.015-137.188-92.311-224.8-92.587h-0.054z" />
<glyph unicode="&#xe90b;" glyph-name="tab-analysis" d="M938.667 760.32v-624.213c0.008-0.391 0.013-0.852 0.013-1.315 0-35.072-27.84-63.642-62.626-64.816l-0.108-0.003h-729.6c-12.402 0.341-23.857 4.113-33.532 10.393l0.252-0.153 11.093 18.773 11.52 17.92 120.32 189.867 263.253-108.373c2.327-0.948 5.026-1.498 7.854-1.498 7.943 0 14.872 4.341 18.544 10.78l0.055 0.105 190.72 313.173c6.226-2.172 13.402-3.427 20.872-3.427 0.462 0 0.924 0.005 1.384 0.014l-0.069-0.001c44.301 0 80.213 35.913 80.213 80.213s-35.913 80.213-80.213 80.213c-44.301 0-80.213-35.913-80.213-80.213v0c-0.001-0.114-0.001-0.25-0.001-0.385 0-20.841 8.121-39.785 21.371-53.841l-0.036 0.039-180.907-298.667-265.813 108.8c-2.334 0.978-5.046 1.546-7.891 1.546-7.719 0-14.461-4.183-18.083-10.407l-0.054-0.1-120.32-194.987-21.333-30.293c-0.225 2.492-0.353 5.391-0.353 8.32s0.128 5.828 0.38 8.691l-0.026-0.371v624.213c-0.016 0.529-0.025 1.151-0.025 1.775 0 34.304 26.99 62.305 60.893 63.926l0.145 0.006h730.453c34.469-1.406 61.88-29.69 61.88-64.376 0-0.468-0.005-0.934-0.015-1.4l0.001 0.069z" />
<glyph unicode="&#xe90c;" glyph-name="tab-facility" d="M810.667 671.573c-0.695 11.218-9.963 20.053-21.295 20.053-0.014 0-0.027 0-0.041 0h-92.585v71.253c-0.241 58.813-47.854 106.425-106.644 106.667h-156.183c-58.813-0.241-106.425-47.854-106.667-106.644v-71.276h-91.733c-0.011 0-0.025 0-0.038 0-11.332 0-20.6-8.835-21.292-19.993l-0.003-0.061-30.72-538.027c-0.083-1.558-0.13-3.381-0.13-5.216 0-28.556 11.451-54.438 30.011-73.305l-0.014 0.014c15.7-17.575 38.429-28.587 63.731-28.587 0.095 0 0.189 0 0.284 0h471.025c0.080 0 0.174 0 0.269 0 25.302 0 48.031 11.012 63.658 28.504l0.073 0.083c17.582 18.661 28.387 43.877 28.387 71.617 0 2.424-0.083 4.829-0.245 7.212l0.018-0.322zM369.92 762.88c0.24 35.249 28.751 63.76 63.977 64h156.183c35.249-0.24 63.76-28.751 64-63.977v-71.276h-284.16z" />
<glyph unicode="&#xe90d;" glyph-name="tab-overview" d="M752.213 753.92c-61.631 60.962-146.417 98.623-240 98.623s-178.369-37.661-240.030-98.653l0.030 0.030c-60.73-61.59-98.234-146.218-98.234-239.606 0-92.099 36.476-175.678 95.769-237.080l-0.095 0.099c-0.093-0.449-0.147-0.965-0.147-1.493s0.053-1.044 0.155-1.543l-0.008 0.049 224.853-224.853c3.928-3.941 9.357-6.385 15.357-6.4h0.003c5.865 0.035 11.152 2.48 14.927 6.394l223.579 223.579c62.37 61.868 100.981 147.605 100.981 242.361 0 92.839-37.065 177.022-97.204 238.557l0.063-0.065zM512 366.933c-86.009 0-155.733 69.724-155.733 155.733s69.724 155.733 155.733 155.733c86.009 0 155.733-69.724 155.733-155.733 0-0.15 0-0.3-0.001-0.45v0.023c0 0 0 0 0-0.001 0-85.774-69.533-155.307-155.307-155.307-0.15 0-0.3 0-0.45 0.001h0.023z" />
<glyph unicode="&#xe90e;" glyph-name="tab-project" d="M725.333 853.333h-426.667c-11.782 0-21.333-9.551-21.333-21.333v0-768c0.234-11.687 9.647-21.099 21.311-21.333h426.689c11.687 0.234 21.099 9.647 21.333 21.311v768.022c0 11.782-9.551 21.333-21.333 21.333v0zM384 753.92h89.173v-128h-89.173zM384 536.747h89.173v-128h-89.173zM576.427 85.333h-128v213.333h128zM640 408.747h-88.747v128h88.747zM640 625.92h-88.747v128h88.747z" />
<glyph unicode="&#xe90f;" glyph-name="compare" d="M659.2 410.88v0 0 0zM694.613 453.973l-299.52 234.24-314.027-245.76c-4.215-3.39-6.889-8.547-6.889-14.329 0-2.047 0.335-4.015 0.954-5.854l-0.038 0.129c2.783-6.809 9.356-11.52 17.029-11.52 0.013 0 0.026 0 0.039 0h70.398v-298.667c0-9.661 7.832-17.493 17.493-17.493v0h459.947c0.127-0.003 0.277-0.005 0.427-0.005 9.661 0 17.493 7.832 17.493 17.493 0 0.002 0 0.004 0 0.005v0 298.667c0 9.661 7.832 17.493 17.493 17.493v0h50.773zM515.413 120.747h-197.973v261.12h197.973zM942.933 547.84l-318.72 250.88c-3.020 2.398-6.888 3.846-11.093 3.846s-8.073-1.449-11.13-3.875l0.037 0.028-143.787-113.067 331.093-261.12c4.267-3.14 7.004-8.143 7.004-13.785 0-2.096-0.378-4.104-1.069-5.96l0.039 0.118c-2.505-6.941-8.987-11.834-16.626-11.947h-85.347v-194.56h148.907c9.897 0 17.92 8.023 17.92 17.92v0 298.667h70.4c0.002 0 0.005 0 0.008 0 9.897 0 17.92 8.023 17.92 17.92 0 5.695-2.656 10.769-6.798 14.052l-0.037 0.028z" />
<glyph unicode="&#xe910;" glyph-name="link" d="M586.24 536.32c34.318-34.352 55.541-81.791 55.541-134.187s-21.224-99.834-55.543-134.188l-85.331-85.331c-34.396-34.396-81.914-55.67-134.4-55.67-104.973 0-190.070 85.097-190.070 190.070 0 52.486 21.274 100.004 55.67 134.4l46.507 46.507c3.621 3.585 8.605 5.8 14.106 5.8 10.714 0 19.466-8.402 20.025-18.977l0.002-0.050c0.901-23.927 5.204-46.544 12.441-67.804l-0.494 1.671c0.753-1.977 1.188-4.263 1.188-6.65 0-5.429-2.253-10.332-5.876-13.824l-0.006-0.006-16.213-16.64c-16.379-16.379-26.51-39.006-26.51-64 0-49.987 40.523-90.51 90.51-90.51 24.994 0 47.621 10.131 64 26.51l85.333 85.333c16.602 16.276 26.893 38.936 26.893 64s-10.291 47.724-26.878 63.986l-0.015 0.014c-3.873 3.754-8.050 7.255-12.47 10.44l-0.33 0.227c-5.075 3.509-8.393 9.246-8.533 15.765v0.021c-0.065 0.925-0.102 2.005-0.102 3.093 0 13.384 5.602 25.459 14.589 34.009l0.020 0.019 26.453 26.453c3.619 3.569 8.591 5.773 14.079 5.773 4.315 0 8.312-1.363 11.583-3.682l-0.062 0.042c8.662-7.178 16.462-14.573 23.745-22.451l0.148-0.162zM762.453 712.533c-34.467 34.24-81.962 55.403-134.4 55.403s-99.933-21.163-134.41-55.413l-85.323-85.323c-34.215-34.399-55.366-81.823-55.366-134.187s21.15-99.788 55.374-134.195l-0.008 0.009c7.76-7.438 16.11-14.435 24.91-20.854l0.69-0.48c3.269-2.307 7.335-3.688 11.724-3.688 5.567 0 10.615 2.221 14.306 5.825l-0.004-0.004 26.027 26.453c9.235 8.934 14.968 21.438 14.968 35.282 0 0.646-0.013 1.29-0.037 1.93l0.003-0.092c-0.578 6.518-3.951 12.147-8.897 15.743l-0.063 0.043c-4.75 3.412-8.927 6.912-12.829 10.695l0.029-0.028c-16.602 16.276-26.893 38.936-26.893 64s10.291 47.724 26.878 63.986l0.015 0.014 85.333 85.333c16.379 16.379 39.006 26.51 64 26.51 49.987 0 90.51-40.523 90.51-90.51 0-24.994-10.131-47.621-26.51-64l-16.213-16.213c-3.621-3.628-5.86-8.636-5.86-14.166 0-2.417 0.428-4.734 1.211-6.88l-0.045 0.139c6.606-20.065 10.629-43.187 11.090-67.182l0.004-0.232c0.561-10.625 9.313-19.027 20.027-19.027 5.501 0 10.485 2.215 14.108 5.802l46.505 46.505c33.986 34.423 54.977 81.745 54.977 133.97 0 52.651-21.335 100.319-55.832 134.83l0.001-0.001z" />
</font></defs></svg>