no,Project name,Station,Year Open,Year completed,GPS,Starting price/ sq.m.,2018-sale,2018-rent,2017-sale,2017-rent,2015-sale,2015-rent,2013-sale,2013-rent
1,Condo One Siam,W1,N/A,2009,"13.749132, 100.527516",80000,122731.58,479.78,114086,,109692,,100668,
2,Klass Siam,W1,2017,2018,"13.748116, 100.528576",150000,177026.13,N/A,173000,,N/A,,N/A,
3,Pathumwan Place,W1,N/A,1985,"13.748887, 100.530410",N/A,100276.5,392.86,95900,,72000,,99761,
4,Patumwan Oasis,W1,N/A,2009,"13.748393, 100.527257",N/A,124625.4,396.91,121000,,112000,,103000,
5,The Reserve Kasemsan 3,W1,2013,2015,"13.749091, 100.527351",170000,189202.58,712.3,186307,,177336,,170000,
6,Sync Nature Siam,W1,2015,2016,"13.748002, 100.527424",180000,205128,883,200342,,188403,,N/A,
7,The Seed Memories Siam,W1,N/A,2011,"13.747915, 100.528321",128000,171785.33,623.46,173000,,165000,,129000,
8,Cooper Siam,W1,2018,2021,"13.746059, 100.522454",138000,N/A,N/A,N/A,,N/A,,N/A,
10,185 Rajadamri,S1,2010,2013,"13.735819, 100.539116",184000,372453.76,1089.32,367914,,305833,,278086,
11,Baan Rajprasong,S1,N/A,2008,"13.738760, 100.541277",84000,121065.4,652.32,116034,,107327,,99676,
12,Baan Ratchadamri,S1,N/A,2005,"13.735172, 100.539035",150000,252073,587.46,242048,,216464,,200307,
13,Baan Somtawin - Rajdamri,S1,1993,1997,"13.738958, 100.540598",48438,67516,438,65210,,62723,,58974,
14,Hansar Rajdamri,S1,N/A,2009,"13.740708, 100.541351",125000,155110.03,875.24,151441,,139609,,138846,
15,Magnolias Ratchadamri Boulevard,S1,2013,2015,"13.742590, 100.540311",180000,226238.5,1096.78,221469,,214065,,195086,
16,Nimit Langsuan,S1,2015,2018,"13.735118, 100.541984",320000,361274.21,N/A,349522,,331467,,N/A,
17,Noble Ambience Sarasin,S1,N/A,2008,"13.735241, 100.540307",78000,160714,597.77,152269,,137838,,129396,
18,The Rajdamri Residence,S1,N/A,2009,"13.739851, 100.541025",88000,112621.11,715.07,109226,,102210,,98088,
19,The Regent Royal Place 1,S1,N/A,1998,"13.741260, 100.541354",60000,63846.67,433.88,61719,,60115,,59668,
20,The Royal Place 2,S1,N/A,1995,"13.739833, 100.541655",57000,58471.38,361.38,55767,,50790,,46984,
21,Klass Sarasin - Rajdamri,S1,2015,2017,"13.734846, 100.540981",177777,203656,1042,192892,,181818,,N/A,
22,The Residences at St. Regis,S1,N/A,2010,"13.739893, 100.539944",170000,333921,1084,306293,,264675,,233726,
23,Baan Sansiri,S1,N/A,1993,"13.740222, 100.542074",40000,44369.86,300.83,41686,,49732,,31874,
24,Focus on Saladaeng,S2,N/A,2011,"13.726796, 100.537176",140000,167754.59,686.52,158635,,153191,,127520,
25,Saladaeng Residences,S2,N/A,2010,"13.725431, 100.538243",190000,252835.21,855.32,250949,,225718,,204936,
26,Silom Grand Terrace,S2,N/A,2005,"13.727754, 100.535873",170000,177345.83,485.26,167509,,149889,,135728,
27,Silom Terrace,S2,N/A,2002,"13.727278, 100.534541",140000,166029,482.23,158067,,150563,,112941,
28,The Legend Saladaeng,S2,N/A,2005,"13.725492, 100.537401",120000,185247.04,571.91,178333,,154936,,147093,
29,Green Point Silom,S2,N/A,1999,"13.728207, 100.529485",94000,105646.18,471.21,102371,,97964,,94390,
30,The Royal Saladaeng,S2,N/A,2006,"13.725853, 100.537212",168000,180666,543.62,169792,,159735,,146267,
31,Ascott Sky Villa Sathorn 9,S3,2009,2012,"13.720660, 100.528206",75000,95514.13,568.94,91531,,84575,,N/A,
32,Ashton Silom,S3,2016,2019,"13.726341, 100.526870",254838,276861,N/A,272753,,N/A,,N/A,
33,Baan Nondzee,S3,N/A,1999,"13.706286, 100.536275",59000,79037.63,356.54,74338,,69737,,66653,
34,Baan Piya sathorn,S3,N/A,1998,"13.722940, 100.537390",95000,106703.3,417.18,104886,,100612,,96267,
35,Bangkok Horizon Sathorn,S3,2014,2015,"13.712799, 100.533292",113000,119463,572.42,115680,,114815,,N/A,
36,Belle Park,S3,N/A,2009,"13.699711, 100.537134",38000,65426.71,323.58,58966,,60716,,58164,
37,Collezio Condominium - Sathorn-Pipat,S3,2011,2013,"13.723350, 100.531890",100000,147136.29,626.25,139341,,139698,,123483,
38,Condo One X (Sathorn - Narathiwas),S3,N/A,2009,"13.700050, 100.535726",70000,75222.74,352.94,69260,,66737,,66736,
39,Condolette Light Convent,S3,2012,2014,"13.725107, 100.533123",134980,151202.24,721.67,141158,,136584,,129173,
40,Diamond Tower,S3,N/A,1985,"13.724882, 100.529308",70000,84931.63,309.73,81632,,92367,,61826,
41,Pearl Garden,S3,N/A,1995,"13.724130, 100.532833",90000,109840,417.86,103746,,94869,,85937,
42,Urbana Sathorn,S3,N/A,2006,"13.723353, 100.535942",68500,149630.28,592,139199,,134260,,130113,
43,Silom City Resort,S3,N/A,2005,"13.723989, 100.532238",87000,108442.21,483.29,107133,,103190,,96342,
44,Silom Surawong Condo,S3,N/A,1993,"13.727888, 100.528946",65000,73076,337.4,72253,,68132,,60321,
45,Ivy Sathorn 10,S3,N/A,2010,"13.723615, 100.526756",112500,125485.39,548.07,121304,,116130,,105664,
46,Knightsbridge Prime Sathorn,S3,2017,2019,"13.716830, 100.533129",120000,163136.42,N/A,158786,,139241,,N/A,
47,Life @ Sathorn 10,S3,N/A,2010,"13.722732, 100.527340",72000,128554.89,563.02,126724,,108527,,97432,
48,Lumpini Place Sathorn-Narathiwat,S3,N/A,2002,"13.710792, 100.534828",88000,79545,386.62,74571,,69343,,65780,
49,M Silom,S3,2012,2014,"13.727453, 100.527241",190000,218440.83,846.57,213283,,186870,,166601,
50,March Tiensieng condominium,S3,N/A,1997,"13.720934, 100.532471",76000,79946.67,N/A,77233,,69001,,73429,
51,Nara 9,S3,2014,2016,"13.717834, 100.532702",105000,160666.81,709.99,151647,,143325,,127731,
52,Narathorn Place,S3,N/A,2005,"13.720122, 100.532127",110000,108719.5,386.96,103703,,92593,,87583,
53,Quad Sathon,S3,2011,2013,"13.717404, 100.530657",95700,116438.08,624.02,108944,,99958,,95000,
54,Quad Silom,S3,2010,2012,"13.723988, 100.530360",100000,162650.56,685.71,154390,,139107,,151260,
55,Rhythm Sathorn-Narathiwas,S3,2013,2014,"13.718604, 100.532220",120000,157936.93,673.48,151176,,141325,,127731,
56,Sathorn Place,S3,N/A,1994,"13.706087, 100.537064",53527,56687,387.88,55658,,52085,,52235,
57,Sathorn Heritage (Bangkok Residences Sathorn),S3,N/A,2008,"13.716556, 100.531247",98000,133915.56,491.33,125825,,111188,,109392,
58,Supalai Prima Riva Rama 3,S3,2011,2014,"13.688122, 100.547973",80000,91893.54,108.65,92220,,82652,,67578,
59,The Bangkok Narathiwas,S3,N/A,2005,"13.709031, 100.532939",62000,83648.06,385.75,80647,,71608,,69204,
60,The Complete Narathiwas,S3,N/A,2008,"13.703411, 100.540300",89000,112525.44,481.43,113727,,104191,,90385,
61,The Empire Place,S3,N/A,2009,"13.719340, 100.531126",90000,135716.14,499.41,135045,,127032,,102555,
62,The Hudson Sathorn 7,S3,2014,2014,"13.721437, 100.533777",130000,154886.16,634.73,149470,,142205,,N/A,
63,The Infinity,S3,N/A,2008,"13.723349, 100.529203",125000,227261.43,637.57,221245,,204895,,182765,
64,The Met,S3,N/A,2009,"13.722211, 100.534416",130000,181749.79,558.86,175112,,156506,,135195,
65,The Oasis Condominium,S3,N/A,2000,"13.725996, 100.531030",71154,94885,526.41,89569,,79617,,76923,
66,The Surawong,S3,N/A,2010,"13.729227, 100.528712",133700,131187.54,628.57,128802,,123404,,N/A,
67,Ritz-Carlton Residences Bangkok,S3,N/A,2015,"13.723480, 100.528030",220000,413195.4,1179.39,385709,,353384,,326789,
68,Klass Silom,S3,2012,2014,"13.725566, 100.531447",131000,172803.11,808.2,164472,,154905,,125694,
69,The Address Sathorn,S3,2012,2012,"13.722765, 100.525622",130000,193086.21,579.56,198498,,153675,,126924,
70,Supalai Elite Sathorn-Suan Plu,S3,2012,2016,"13.721014, 100.537462",94000,129717.83,680.38,131268,,110215,,71603,
71,Baan Siri Silom,S5,N/A,2006,"13.720755, 100.521349",64500,130945.82,537.13,121474,,112667,,108061,
72,Canapaya Residences,S5,2014,2018,"13.687401, 100.513765",137800,225601.67,N/A,225188,,209677,,N/A,
73,Centric Sathorn - St.Louis,S5,2012,2014,"13.718572, 100.526811",122421,141629,551.29,145484,,130458,,103986,
74,Noble Revo Silom,S5,2013,2016,"13.719540, 100.519496",120000,150716,813.95,149835,,145027,,123256,
75,Le Rich Rama 3 Sathorn-Satupradit,S5,N/A,2009,"13.690887, 100.534398",57800,66486,321.73,65176,,64369,,62963,
76,The Star Estate @Rama III,S5,N/A,2008,"13.674787, 100.534760",69785,81864.37,349.38,75275,,74748,,67250,
77,Pabhada Silom Condominium,S5,N/A,2007,"13.722778, 100.523892",75303,94794.75,455.58,88932,,85224,,82171,
78,Sampoom Garden,S5,N/A,1997,"13.721963, 100.525162",70000,100149,398.68,96254,,84359,,76998,
79,Sathorn House,S5,N/A,1999,"13.719980, 100.521262",114423,115043.91,471.44,110584,,93777,,88714,
80,Silom Suite,S5,N/A,1997,"13.721777, 100.526771",73614,106747.1,463.73,103730,,84161,,88225,
81,St.Louis Grand Terrace,S5,N/A,2006,"13.719381, 100.526687",56000,111990.35,421.06,104347,,93570,,95224,
82,State Tower,S5,N/A,2001,"13.721032, 100.516889",65217,121015.74,449.95,115801,,116575,,95282,
83,Fuse Chan-Sathorn,S5,2013,2015,"13.705715, 100.530385",85100,106070.83,498.88,101751,,90000,,N/A,
84,The Bangkok Sathorn,S5,2014,2016,"13.718667, 100.520526",170000,210196,807.8,202677,,186419,,N/A,
85,The Diplomat Sathorn,S5,2013,2016,"13.719800, 100.522074",200000,254994,900.96,240960,,232115,,N/A,
86,The Key Sathorn-Charoenraj,S5,2014,2017,"13.700992, 100.516225",90000,107328,491.4,103202,,91900,,N/A,
87,The Line Sathorn,S5,2017,2020,"13.719796, 100.522357",246875,275427,N/A,260000,,N/A,,N/A,
88,The Lofts Silom,S5,2017,2020,"13.723165, 100.521971",178704,220178,N/A,210000,,N/A,,N/A,
89,The Maple Sathon-Narathiwat condominium,S5,N/A,2001,"13.712517, 100.528563",90016,76428,337.06,74603,,72000,,71907,
90,The Room Sathorn,S5,2013,2016,"13.722483, 100.523544",160000,194839,745.83,191108,,159381,,N/A,
91,The Room Sathorn - St.Louis,S5,2014,2014,"13.707116, 100.526723",128939,156839,617.66,151554,,140000,,N/A,
92,Baan Sathorn Chaophraya,S6,N/A,2005,"13.718939, 100.509160",43182,95843,410.3269172,89701,,86645,,70703,
93,Chatrium Condominium Bangkok,S6,N/A,2007,"13.710513, 100.510428",96212,165284,590.7804286,158000,,150000,,135000,
94,Notting Hill The Exclusive CharoenKrung 93,S6,2016,2018,"13.703051, 100.505496",97000,108234,N/A,105742,,N/A,,N/A,
95,Rhythm Sathorn,S6,2013,2015,"13.717120, 100.516527",137200,162939,721.4251717,157293,,140815,,120295,
96,River Heaven,S6,N/A,2004,"13.702197, 100.500268",87761,94206,353.5667897,87373,,83786,,78867,
97,Supalai Casa Riva Vista 2,S6,N/A,2007,"13.695097, 100.494571",65700,78275.46,353.1250537,75899,,65407,,63133,
98,Supalai River Place,S6,N/A,2009,"13.710768, 100.502760",49000,87722.43,414.23,87794,,80882,,74862,
99,The Fine @ River,S6,N/A,2008,"13.717477, 100.508898",53293,98768,427.8,91445,,90233,,82643,
100,The Station Sathorn - Bangrak,S6,N/A,2008,"13.713139, 100.514433",56801,83389,369.96,81100,,77874,,75533,
101,Bangkok Feliz Sathorn-Taksin,S7,2014,2015,"13.721874, 100.504752",106930,117401,424.573055,114667,,102333,,N/A,
102,Hive Sathorn,S7,2008,2010,"13.721547, 100.502326",80000,120124,432.2419989,117070,,116490,,100862,
103,Ideo Mobi Sathorn,S7,2012,2014,"13.720288, 100.502542",89000,152109,580.5704542,150244,,143974,,113668,
104,Ideo Sathorn-Taksin,S7,2008,2010,"13.720213, 100.502038",100000,123979,469.2331883,121342,,116870,,109559,
105,Ivy River,S7,2007,2009,"13.688222, 100.492290",49667,85798.68,371.9056652,79276,,71513,,71497,
106,Q.House Condo - Sathorn,S7,N/A,2009,"13.721438, 100.501358",75000,130717,516.994928,132395,,124570,,118259,
107,Sathorn Bridge Tower,S7,N/A,1996,"13.718826, 100.506347",43103,72302,290.3981265,70868,,63250,,54454,
108,Magnolia Waterfront Residences,S7,2014,2018,"13.728007, 100.511173",230000,284223,N/A,275865,,255493,,N/A,
109,Supalai Premier Charoen Nakhon,S7,2018,2021,"13.729906, 100.507205",90192,96600,N/A,N/A,,N/A,,N/A,
110,Supalai River Resort,S7,N/A,2013,"13.707448, 100.496227",62100,102764,402.0726683,104148,,86211,,78472,
111,The Bangkok Sathorn-Taksin,S7,N/A,2008,"13.720092, 100.503201",110000,120050,476.618705,115646,,113581,,106414,
112,The LightHouse,S7,N/A,2010,"13.722303, 100.508451",62295,104617,490.08,106447,,99134,,85238,
113,The Master Sathorn Executive,S7,N/A,2006,"13.721432, 100.500377",43134,76045,328.1972265,73165,,71628,,68877,
114,The Plenary Sathorn,S7,N/A,2012,"13.722583, 100.498772",46800,81844,398.44,79086,,71866,,69301,
115,TOURMALINE GOLD SATHORN – TAKSIN,S7,2010,2011,"13.722796, 100.502016",72500,92245,374.24,90250,,86542,,81732,
116,TOURMALINE LITE SATHORN – TAKSIN,S7,2011,2013,"13.722782, 100.501533",70400,76190,406.6390041,75290,,73753,,70981,
117,Tridhos City Marina,S7,N/A,2009,"13.708880, 100.496453",50485,68869,270.65,67338,,62276,,54771,
118,Urbano Absolute Sathon-Taksin,S7,2011,2013,"13.721157, 100.506492",79700,127911,635.3345205,125059,,119006,,105571,
119,Villa Sathorn,S7,N/A,2010,"13.721253, 100.504149",92000,104518,471.92,102247,,95807,,90596,
120,Watermark Chaopraya river,S7,N/A,2012,"13.710613, 100.500816",70000,119930,451.43,114233,,108149,,102752,
121,The River,S7,N/A,2013,"13.721626, 100.510305",90500,181331,628.2570051,177637,,161429,,151191,
122,Hive Taksin,S8,N/A,2011,"13.721915, 100.496528",78000,119145,448.9986372,119088,,103319,,100206,
123,Ideo Sathorn - Wongwian Yai,S8,2018,N/A,"13.721782, 100.497322",150000,N/A,N/A,N/A,,N/A,,N/A,
124,Fuse Condo Sathorn-Taksin,S8,N/A,2013,"13.720683, 100.497148",92000,121650,507.4747647,126309,,112550,,102286,
125,Ideo Blucove Sathorn,S8,2009,2011,"13.722125, 100.495591",62000,101679,481.7070447,100704,,95804,,92492,
126,My Condo Sathorn Taksin,S8,N/A,2008,"13.722685, 100.495845",52000,86661,340,85185,,76993,,68591,
127,Nye by Sansiri,S8,2013,2015,"13.721840, 100.497794",100000,140767,582,137422,,124827,,111169,
128,TEAL Sathorn-Taksin,S8,2010,2013,"13.720223, 100.492717",88200,122538,476.576144,121993,,108472,,96658,
129,The Niche Taksin,S8,N/A,2011,"13.727039, 100.491077",61300,82500,285.36,82771,,69999,,64212,
130,The Rich @Sathorn-Taksin,S8,2014,2017,"13.719997, 100.493807",130000,136292,470.9274387,132364,,113093,,N/A,
131,The Room BTS Wongwianyai,S8,N/A,2014,"13.720623, 100.494822",115000,173808,549.2480094,165121,,148730,,N/A,
132,The Seed Sathorn-Taksin,S8,N/A,2009,"13.723368, 100.495622",70700,78268,323.24,76445,,76786,,70405,
133,The Viva Sathorn-Taksin,S8,N/A,2011,"13.723328, 100.494540",79200,88026,369.51,85029,,81624,,75080,
134,Bright Wongwianyai,S8,2014,2018,"13.719518, 100.490575",120000,128848,N/A,126265,,N/A,,N/A,
135,Motif Condo Wongwianyai-Talat Plu*,S8,N/A,2014,"13.727017, 100.487625",64000,82543,364.91,81501,,73105,,57766,
136,Ideo Sathorn-Thapra,S9,2013,2015,"13.717271, 100.482321",95000,120542,493.8917299,118678,,115700,,107000,
137,The Parkland Taksin-Thapra,S9,2008,2010,"13.716583, 100.481140",70000,84995,329.02,81725,,78436,,75872,
138,The Room Sathorn-Taksin,S9,N/A,2011,"13.717794, 100.483492",86000,119414,527,116049,,108036,,101443,
139,Aspire Sathorn-Thapra,S10,2015,2017,"13.715171, 100.478627",84255,112858,468.2054317,108000,,98195,,N/A,
140,Regent Orchid Talad Plu,S10,N/A,2015,"13.716675, 100.476487",46300,56354,334.88,53754,,52333,,N/A,
141,U Delight @Talat Phlu Station,S10,2014,2016,"13.709863, 100.479507",73000,110999,453,108777,,93667,,N/A,
142,Whizdom Station Ratchada-Thapra,S10,2016,2018,"13.713741, 100.478336",90036,121539,N/A,119609,,N/A,,N/A,
143,The Parkland Grand Taksin,S10,N/A,2012,"13.716369, 100.480608",62100,95946,403.63,96059,,92282,,76343,
144,Life Condo Thapra,S10,N/A,2008,"13.717979, 100.477173",59000,70232,303.47,64169,,63856,,58730,
145,The Parkland Ratchada-Thaphra,S10,N/A,2009,"13.710302, 100.479257",39500,66368,294.02,65809,,64388,,62767,
146,Supalai Loft @Talat Phlu Station,S10,2015,2018,"13.711268, 100.479355",60600,77279,N/A,75083,,70000,,N/A,
147,Supalai Park Talat Phlu Station,S10,2017,2020,"13.712472, 100.473888",60000,66000,N/A,63543,,N/A,,N/A,
148,Bangkok Horizon Ratchada-Thaphra,S10,N/A,2014,"13.708129, 100.480648",56800,77567,359.38,75685,,73255,,N/A,
149,Casa Condo Ratchada ThaPhra,S10,N/A,2011,"13.713816, 100.477093",72600,88006,329.69,83046,,85240,,67059,
150,Casa Condo Ratchada-Ratchaphruek,S10,2012,2014,"13.713592, 100.476315",69200,104066,408.61,103441,,89458,,83239,
151,Aspire Wutthakat,S11,2015,2016,"13.713970, 100.471829",72000,88681.45,364.73,84361,,N/A,,N/A,
152,Ideo Wutthakat,S11,2013,2016,"13.715040, 100.467412",87000,110901.33,415.37,105441,,96463,,N/A,
153,PeLa Condo by Chanuntorn,S11,2013,2016,"13.713359, 100.471565",71000,90253,320.91,87222,,83580,,74000,
154,The Key Sathorn-Rachaphruk,S11,2012,2014,"13.712958, 100.465905",57600,91970.19,376.97,87394,,82730,,67774,
155,The Key Wutthakat,S11,2013,2015,"13.714071, 100.468157",76000,96290.44,429.47,90996,,84999,,76000,
156,The Tempo Grand Sathorn-Wutthakat,S11,2013,2016,"13.713108, 100.467742",74000,99814.11,405.24,96329,,91638,,N/A,
157,Metro Sky Wutthakat,S11,2018,2019,"13.715806, 100.472201",80000,112676,N/A,N/A,,N/A,,N/A,
158,Grand condo Wutthakat,S11,2017,2019,"13.702295, 100.468204",46333,63744,N/A,62822,,N/A,,N/A,
159,Aspire Sathorn-Taksin (Timber Zone),S11,2013,2015,"13.713490, 100.463959",80000,84533.99,434,83456,,73312,,57048,
160,Aspire Sathorn-Taksin(brick zone),S11,2014,2015,"13.712124, 100.463398",60000,72300,314,68210,,65805,,N/A,
161,Aspire Sathorn-Taksin(copper zone),S11,N/A,2016,"13.712733, 100.464312",79000,90118,344,86596,,N/A,,N/A,
162,Aspire Sathorn-Ratchapruek,S12,2017,2018,"13.716998, 100.458387",72692,90938.33,N/A,87000,,N/A,,N/A,
163,Bangkok Horizon P 48,S12,2012,2015,"13.716018, 100.445528",79772,95568.75,273.62,90755,,85043,,81774,
164,Fuse Sense Bangkae,S12,2013,2015,"13.710899, 100.396205",62500,72854.86,339,70234,,68077,,67500,
165,Lumpini Condo Town Bangkhae,S12,2009,2010,"13.707403, 100.421504",31000,49444,233.54,47927,,44337,,39578,
166,Supalai Park Ratchaphruek-Phetkasem,S12,N/A,2013,"13.718799, 100.455827",75000,80078.78,338.48,75477,,69044,,60930,
167,Supalai Veranda Phasi Charoen Station,S12,2017,2020,"13.712905, 100.431956",53571,62670,N/A,61000,,N/A,,N/A,
168,The President Sathorn-Ratchaphruek,S12,2012,2013,"13.720467, 100.458840",60000,78367.26,387.94,76996,,76972,,70000,
169,The President Sathorn-Ratchaphruek 2,S12,2013,2016,"13.719525, 100.458846",56700,90881.63,386.05,88506,,88484,,57000,
170,The President Sathorn-Ratchaphruek 3,S12,2014,2017,"13.719782, 100.458957",60000,76879.4,359.38,73567,,74356,,N/A,
171,Chewathai Phetkasem 27,S12,2016,2018,"13.718300, 100.453901",70968,85180,N/A,82500,,N/A,,N/A,